(footprint "Badgelife-SAO-169" (version 20211014) (generator pcbnew)
  (layer "F.Cu")
  (tedit 63B9CAA3)
  (descr "Through hole straight IDC box header, 2x03, 2.54mm pitch, double rows")
  (tags "Through hole IDC box header THT 2x03 2.54mm double row")
  (attr through_hole)
  (fp_text reference "REF*" (at 0 -5) (layer "F.SilkS")
    (effects (font (size 1 1) (thickness 0.15)))
    (tstamp 51830f66-18cf-4edb-b54e-530ef47f04e7)
  )
  (fp_text value "SAO_169BIS" (at 0 4.25) (layer "F.Fab")
    (effects (font (size 1 1) (thickness 0.15)))
    (tstamp 5b63cc64-810d-4f99-a76a-a479ca0ef650)
  )
  (fp_text user "GPIO1" (at 3 -2.794 unlocked) (layer "B.SilkS")
    (effects (font (size 0.75 0.75) (thickness 0.15)) (justify mirror))
    (tstamp 42037fad-f5d2-4d4e-88d2-68ad2b2376da)
  )
  (fp_text user "GPIO2" (at 3 3.048) (layer "B.SilkS")
    (effects (font (size 0.75 0.75) (thickness 0.15)) (justify mirror))
    (tstamp 43a76f37-3a32-4717-8fc4-a788fd3aa15a)
  )
  (fp_text user "SCL" (at 0 3.048) (layer "B.SilkS")
    (effects (font (size 0.75 0.75) (thickness 0.15)) (justify mirror))
    (tstamp 7a113dd0-ae36-4f8e-9e5c-4045864c1286)
  )
  (fp_text user "VCC" (at -2.54 -2.794 unlocked) (layer "B.SilkS")
    (effects (font (size 0.75 0.75) (thickness 0.15)) (justify mirror))
    (tstamp b3482d36-3cb8-4922-8363-4dde9512eaaa)
  )
  (fp_text user "SDA" (at 0 -2.794 unlocked) (layer "B.SilkS")
    (effects (font (size 0.75 0.75) (thickness 0.15)) (justify mirror))
    (tstamp e37b7704-6fd4-49f9-bcb0-d93cc5569038)
  )
  (fp_text user "GND" (at -2.54 3.048 unlocked) (layer "B.SilkS")
    (effects (font (size 0.75 0.75) (thickness 0.15)) (justify mirror))
    (tstamp f3e78d6f-ec1e-491b-b68b-873fdb6a1b0f)
  )
  (fp_text user "${REFERENCE}" (at 6 0 270) (layer "F.Fab")
    (effects (font (size 1 1) (thickness 0.15)))
    (tstamp 699aaa2a-bb68-4bb1-9f36-2ef461b1df9d)
  )
  (fp_circle (center -4 -1.25) (end -3.875 -1.25) (layer "B.SilkS") (width 0.5) (fill none) (tstamp b99c319d-cd23-468b-9067-84bdda77be33))
  (fp_line (start -1.25 -3) (end -1.25 -4) (layer "F.SilkS") (width 0.25) (tstamp 1c8bd3ec-52f8-412d-ab87-76ba2dc5ba90))
  (fp_line (start -1.25 -4) (end 1.25 -4) (layer "F.SilkS") (width 0.25) (tstamp 4aa3c6bf-e5e2-4be7-8fd0-457efb174f24))
  (fp_line (start -4.25 3) (end 4.25 3) (layer "F.SilkS") (width 0.25) (tstamp 680c5bd0-21b4-464f-9063-e630ceae51b1))
  (fp_line (start -4.75 -2.5) (end -4.75 2.5) (layer "F.SilkS") (width 0.25) (tstamp 9c3ded12-b7b6-43ec-9a78-d68c986ec6a7))
  (fp_line (start -4.25 -3) (end -1.25 -3) (layer "F.SilkS") (width 0.25) (tstamp ba678541-f02d-4a5d-ba86-2c10d611b9c9))
  (fp_line (start 1.25 -3) (end 4.25 -3) (layer "F.SilkS") (width 0.25) (tstamp cf9f1646-d8be-4119-8df3-1ce78bdec2ff))
  (fp_line (start 4.75 -2.5) (end 4.75 2.5) (layer "F.SilkS") (width 0.25) (tstamp d8ca1ac6-0b0a-4a07-9a8f-617abc9d8b56))
  (fp_line (start 1.25 -3) (end 1.25 -4) (layer "F.SilkS") (width 0.25) (tstamp da6cca14-5ee3-4c97-bb6d-c82322b5e230))
  (fp_arc (start 4.75 2.5) (mid 4.603553 2.853553) (end 4.25 3) (layer "F.SilkS") (width 0.25) (tstamp 22adf621-c6bf-4d7f-b17b-281ac26f7f92))
  (fp_arc (start 4.25 -3) (mid 4.603553 -2.853553) (end 4.75 -2.5) (layer "F.SilkS") (width 0.25) (tstamp 3d168d8c-4ae6-455f-abcc-40438816e0d2))
  (fp_arc (start -4.75 -2.5) (mid -4.603553 -2.853553) (end -4.25 -3) (layer "F.SilkS") (width 0.25) (tstamp 4ebf4773-fd03-4191-96e7-f72835e5baf4))
  (fp_arc (start -4.25 3) (mid -4.603553 2.853553) (end -4.75 2.5) (layer "F.SilkS") (width 0.25) (tstamp d5ffa297-12e0-4a94-a08a-f6f523f52767))
  (fp_circle (center -4 -1.25) (end -3.875 -1.25) (layer "F.SilkS") (width 0.5) (fill none) (tstamp faa9e65b-d498-4889-8aa2-08e4942a40e8))
  (pad "1" thru_hole oval (at -2.48 -1.25 270) (size 1.7272 1.7272) (drill 1.016) (layers *.Cu *.Mask) (tstamp e54403c5-8edb-4662-a66b-ff1e376df33a))
  (pad "2" thru_hole rect (at -2.48 1.29 270) (size 1.7272 1.7272) (drill 1.016) (layers *.Cu *.Mask) (tstamp 4c20310b-3533-4658-9231-63a80f95598b))
  (pad "3" thru_hole oval (at 0.06 -1.25 270) (size 1.7272 1.7272) (drill 1.016) (layers *.Cu *.Mask) (tstamp cf4a110d-630a-4853-9a55-0e17ff060054))
  (pad "4" thru_hole oval (at 0.06 1.29 270) (size 1.7272 1.7272) (drill 1.016) (layers *.Cu *.Mask) (tstamp 330c3337-286a-4d8b-a160-5716332ffbbe))
  (pad "5" thru_hole circle (at 2.6 -1.25 270) (size 1.7272 1.7272) (drill 1.016) (layers *.Cu *.Mask) (tstamp 3d239651-e8a4-42ae-a3e4-85fac5377cdd))
  (pad "6" thru_hole circle (at 2.6 1.29 270) (size 1.7272 1.7272) (drill 1.016) (layers *.Cu *.Mask) (tstamp e66df2f1-4271-4fc8-82a2-0ccebfbe483a))
  (model "Connector_IDC.3dshapes/IDC-Header_2x03_P2.54mm_Vertical.wrl"
    (offset (xyz -2.5 1.2 -1.6))
    (scale (xyz 1 1 1))
    (rotate (xyz 180 0 90))
  )
)
