(module Monero_HW:SolderlittleArea_8 (layer F.Cu) (tedit 5CFABFA0)
  (fp_text reference REF* (at 5.5 -3) (layer F.SilkS)
    (effects (font (size 1 1) (thickness 0.15)))
  )
  (fp_text value SolderlittleArea_8 (at -3.5 -3) (layer F.Fab)
    (effects (font (size 1 1) (thickness 0.15)))
  )
  (pad 1 smd roundrect (at -3.75 -1) (size 2 1.5) (layers F.Cu F.Mask) (roundrect_rratio 0.25))
  (pad 2 smd roundrect (at -1.25 -1) (size 2 1.5) (layers F.Cu F.Mask) (roundrect_rratio 0.25))
  (pad 3 smd roundrect (at 1.25 -1) (size 2 1.5) (layers F.Cu F.Mask) (roundrect_rratio 0.25))
  (pad 4 smd roundrect (at 3.75 -1) (size 2 1.5) (layers F.Cu F.Mask) (roundrect_rratio 0.25))
  (pad 5 smd roundrect (at 3.75 1) (size 2 1.5) (layers F.Cu F.Mask) (roundrect_rratio 0.25))
  (pad 6 smd roundrect (at 1.25 1) (size 2 1.5) (layers F.Cu F.Mask) (roundrect_rratio 0.25))
  (pad 7 smd roundrect (at -1.25 1) (size 2 1.5) (layers F.Cu F.Mask) (roundrect_rratio 0.25))
  (pad 8 smd roundrect (at -3.75 1) (size 2 1.5) (layers F.Cu F.Mask) (roundrect_rratio 0.25))
)
