(kicad_sch (version 20211123) (generator eeschema)

  (uuid baecefa6-fc3b-4552-ad2a-37ff533a09fe)

  (paper "A4")

  (title_block
    (title "HiP Berlin Hardware Badge")
    (date "2022-12-08")
    (rev "0.8.6")
    (company "HiP Berlin, Badge Team")
    (comment 1 "Copyright © 2022, HiP Berlin")
    (comment 2 "Serving HiP 2022 conference visitors")
    (comment 3 "Pending quality assurance testing")
    (comment 4 "Warning, untested prototype!")
  )

  (lib_symbols
    (symbol "74xGxx:74LVC1G17" (pin_names (offset 1.016)) (in_bom yes) (on_board yes)
      (property "Reference" "U" (id 0) (at -2.54 3.81 0)
        (effects (font (size 1.27 1.27)))
      )
      (property "Value" "74LVC1G17" (id 1) (at 0 -3.81 0)
        (effects (font (size 1.27 1.27)))
      )
      (property "Footprint" "" (id 2) (at 0 0 0)
        (effects (font (size 1.27 1.27)) hide)
      )
      (property "Datasheet" "http://www.ti.com/lit/sg/scyt129e/scyt129e.pdf" (id 3) (at 0 0 0)
        (effects (font (size 1.27 1.27)) hide)
      )
      (property "ki_keywords" "Single Gate Buff Schmitt LVC CMOS" (id 4) (at 0 0 0)
        (effects (font (size 1.27 1.27)) hide)
      )
      (property "ki_description" "Single Schmitt Buffer Gate, Low-Voltage CMOS" (id 5) (at 0 0 0)
        (effects (font (size 1.27 1.27)) hide)
      )
      (property "ki_fp_filters" "SOT* SG-*" (id 6) (at 0 0 0)
        (effects (font (size 1.27 1.27)) hide)
      )
      (symbol "74LVC1G17_0_1"
        (polyline
          (pts
            (xy -2.54 0.635)
            (xy -1.905 0.635)
            (xy -1.905 -0.635)
          )
          (stroke (width 0) (type default) (color 0 0 0 0))
          (fill (type none))
        )
        (polyline
          (pts
            (xy -3.81 2.54)
            (xy -3.81 -2.54)
            (xy 2.54 0)
            (xy -3.81 2.54)
          )
          (stroke (width 0.254) (type default) (color 0 0 0 0))
          (fill (type none))
        )
        (polyline
          (pts
            (xy -3.175 0.635)
            (xy -2.54 0.635)
            (xy -2.54 -0.635)
            (xy -1.27 -0.635)
          )
          (stroke (width 0) (type default) (color 0 0 0 0))
          (fill (type none))
        )
      )
      (symbol "74LVC1G17_1_1"
        (pin input line (at -7.62 0 0) (length 3.81)
          (name "~" (effects (font (size 1.016 1.016))))
          (number "2" (effects (font (size 1.016 1.016))))
        )
        (pin power_in line (at 0 -2.54 270) (length 0) hide
          (name "GND" (effects (font (size 1.016 1.016))))
          (number "3" (effects (font (size 1.016 1.016))))
        )
        (pin output line (at 6.35 0 180) (length 3.81)
          (name "~" (effects (font (size 1.016 1.016))))
          (number "4" (effects (font (size 1.016 1.016))))
        )
        (pin power_in line (at 0 2.54 90) (length 0) hide
          (name "VCC" (effects (font (size 1.016 1.016))))
          (number "5" (effects (font (size 1.016 1.016))))
        )
      )
    )
    (symbol "Connector:TestPoint" (pin_numbers hide) (pin_names (offset 0.762) hide) (in_bom yes) (on_board yes)
      (property "Reference" "TP" (id 0) (at 0 6.858 0)
        (effects (font (size 1.27 1.27)))
      )
      (property "Value" "TestPoint" (id 1) (at 0 5.08 0)
        (effects (font (size 1.27 1.27)))
      )
      (property "Footprint" "" (id 2) (at 5.08 0 0)
        (effects (font (size 1.27 1.27)) hide)
      )
      (property "Datasheet" "~" (id 3) (at 5.08 0 0)
        (effects (font (size 1.27 1.27)) hide)
      )
      (property "ki_keywords" "test point tp" (id 4) (at 0 0 0)
        (effects (font (size 1.27 1.27)) hide)
      )
      (property "ki_description" "test point" (id 5) (at 0 0 0)
        (effects (font (size 1.27 1.27)) hide)
      )
      (property "ki_fp_filters" "Pin* Test*" (id 6) (at 0 0 0)
        (effects (font (size 1.27 1.27)) hide)
      )
      (symbol "TestPoint_0_1"
        (circle (center 0 3.302) (radius 0.762)
          (stroke (width 0) (type default) (color 0 0 0 0))
          (fill (type none))
        )
      )
      (symbol "TestPoint_1_1"
        (pin passive line (at 0 0 90) (length 2.54)
          (name "1" (effects (font (size 1.27 1.27))))
          (number "1" (effects (font (size 1.27 1.27))))
        )
      )
    )
    (symbol "Device:Antenna_Shield" (pin_numbers hide) (pin_names (offset 1.016) hide) (in_bom yes) (on_board yes)
      (property "Reference" "AE" (id 0) (at -1.905 4.445 0)
        (effects (font (size 1.27 1.27)) (justify right))
      )
      (property "Value" "Antenna_Shield" (id 1) (at -1.905 2.54 0)
        (effects (font (size 1.27 1.27)) (justify right))
      )
      (property "Footprint" "" (id 2) (at 0 2.54 0)
        (effects (font (size 1.27 1.27)) hide)
      )
      (property "Datasheet" "~" (id 3) (at 0 2.54 0)
        (effects (font (size 1.27 1.27)) hide)
      )
      (property "ki_keywords" "antenna" (id 4) (at 0 0 0)
        (effects (font (size 1.27 1.27)) hide)
      )
      (property "ki_description" "Antenna with extra pin for shielding" (id 5) (at 0 0 0)
        (effects (font (size 1.27 1.27)) hide)
      )
      (symbol "Antenna_Shield_0_1"
        (arc (start -0.508 -1.143) (mid -0.8485 -2.1032) (end 0 -2.667)
          (stroke (width 0) (type default) (color 0 0 0 0))
          (fill (type none))
        )
        (arc (start 0 -2.667) (mid 0.8047 -2.0885) (end 0.508 -1.143)
          (stroke (width 0) (type default) (color 0 0 0 0))
          (fill (type none))
        )
        (polyline
          (pts
            (xy 0 -2.54)
            (xy 0 0)
          )
          (stroke (width 0) (type default) (color 0 0 0 0))
          (fill (type none))
        )
        (polyline
          (pts
            (xy 0 5.08)
            (xy 0 -3.81)
          )
          (stroke (width 0.254) (type default) (color 0 0 0 0))
          (fill (type none))
        )
        (polyline
          (pts
            (xy 0.762 -1.905)
            (xy 2.54 -1.905)
          )
          (stroke (width 0) (type default) (color 0 0 0 0))
          (fill (type none))
        )
        (polyline
          (pts
            (xy 2.54 -2.54)
            (xy 2.54 -1.905)
          )
          (stroke (width 0) (type default) (color 0 0 0 0))
          (fill (type none))
        )
        (polyline
          (pts
            (xy 1.27 5.08)
            (xy 0 0)
            (xy -1.27 5.08)
          )
          (stroke (width 0.254) (type default) (color 0 0 0 0))
          (fill (type none))
        )
        (circle (center 0.762 -1.905) (radius 0.1778)
          (stroke (width 0) (type default) (color 0 0 0 0))
          (fill (type outline))
        )
      )
      (symbol "Antenna_Shield_1_1"
        (pin input line (at 0 -5.08 90) (length 2.54)
          (name "A" (effects (font (size 1.27 1.27))))
          (number "1" (effects (font (size 1.27 1.27))))
        )
        (pin input line (at 2.54 -5.08 90) (length 2.54)
          (name "Shield" (effects (font (size 1.27 1.27))))
          (number "2" (effects (font (size 1.27 1.27))))
        )
      )
    )
    (symbol "Device:C" (pin_numbers hide) (pin_names (offset 0.254)) (in_bom yes) (on_board yes)
      (property "Reference" "C" (id 0) (at 0.635 2.54 0)
        (effects (font (size 1.27 1.27)) (justify left))
      )
      (property "Value" "C" (id 1) (at 0.635 -2.54 0)
        (effects (font (size 1.27 1.27)) (justify left))
      )
      (property "Footprint" "" (id 2) (at 0.9652 -3.81 0)
        (effects (font (size 1.27 1.27)) hide)
      )
      (property "Datasheet" "~" (id 3) (at 0 0 0)
        (effects (font (size 1.27 1.27)) hide)
      )
      (property "ki_keywords" "cap capacitor" (id 4) (at 0 0 0)
        (effects (font (size 1.27 1.27)) hide)
      )
      (property "ki_description" "Unpolarized capacitor" (id 5) (at 0 0 0)
        (effects (font (size 1.27 1.27)) hide)
      )
      (property "ki_fp_filters" "C_*" (id 6) (at 0 0 0)
        (effects (font (size 1.27 1.27)) hide)
      )
      (symbol "C_0_1"
        (polyline
          (pts
            (xy -2.032 -0.762)
            (xy 2.032 -0.762)
          )
          (stroke (width 0.508) (type default) (color 0 0 0 0))
          (fill (type none))
        )
        (polyline
          (pts
            (xy -2.032 0.762)
            (xy 2.032 0.762)
          )
          (stroke (width 0.508) (type default) (color 0 0 0 0))
          (fill (type none))
        )
      )
      (symbol "C_1_1"
        (pin passive line (at 0 3.81 270) (length 2.794)
          (name "~" (effects (font (size 1.27 1.27))))
          (number "1" (effects (font (size 1.27 1.27))))
        )
        (pin passive line (at 0 -3.81 90) (length 2.794)
          (name "~" (effects (font (size 1.27 1.27))))
          (number "2" (effects (font (size 1.27 1.27))))
        )
      )
    )
    (symbol "Device:Crystal" (pin_numbers hide) (pin_names (offset 1.016) hide) (in_bom yes) (on_board yes)
      (property "Reference" "Y" (id 0) (at 0 3.81 0)
        (effects (font (size 1.27 1.27)))
      )
      (property "Value" "Crystal" (id 1) (at 0 -3.81 0)
        (effects (font (size 1.27 1.27)))
      )
      (property "Footprint" "" (id 2) (at 0 0 0)
        (effects (font (size 1.27 1.27)) hide)
      )
      (property "Datasheet" "~" (id 3) (at 0 0 0)
        (effects (font (size 1.27 1.27)) hide)
      )
      (property "ki_keywords" "quartz ceramic resonator oscillator" (id 4) (at 0 0 0)
        (effects (font (size 1.27 1.27)) hide)
      )
      (property "ki_description" "Two pin crystal" (id 5) (at 0 0 0)
        (effects (font (size 1.27 1.27)) hide)
      )
      (property "ki_fp_filters" "Crystal*" (id 6) (at 0 0 0)
        (effects (font (size 1.27 1.27)) hide)
      )
      (symbol "Crystal_0_1"
        (rectangle (start -1.143 2.54) (end 1.143 -2.54)
          (stroke (width 0.3048) (type default) (color 0 0 0 0))
          (fill (type none))
        )
        (polyline
          (pts
            (xy -2.54 0)
            (xy -1.905 0)
          )
          (stroke (width 0) (type default) (color 0 0 0 0))
          (fill (type none))
        )
        (polyline
          (pts
            (xy -1.905 -1.27)
            (xy -1.905 1.27)
          )
          (stroke (width 0.508) (type default) (color 0 0 0 0))
          (fill (type none))
        )
        (polyline
          (pts
            (xy 1.905 -1.27)
            (xy 1.905 1.27)
          )
          (stroke (width 0.508) (type default) (color 0 0 0 0))
          (fill (type none))
        )
        (polyline
          (pts
            (xy 2.54 0)
            (xy 1.905 0)
          )
          (stroke (width 0) (type default) (color 0 0 0 0))
          (fill (type none))
        )
      )
      (symbol "Crystal_1_1"
        (pin passive line (at -3.81 0 0) (length 1.27)
          (name "1" (effects (font (size 1.27 1.27))))
          (number "1" (effects (font (size 1.27 1.27))))
        )
        (pin passive line (at 3.81 0 180) (length 1.27)
          (name "2" (effects (font (size 1.27 1.27))))
          (number "2" (effects (font (size 1.27 1.27))))
        )
      )
    )
    (symbol "Device:Crystal_GND24" (pin_names (offset 1.016) hide) (in_bom yes) (on_board yes)
      (property "Reference" "Y" (id 0) (at 3.175 5.08 0)
        (effects (font (size 1.27 1.27)) (justify left))
      )
      (property "Value" "Crystal_GND24" (id 1) (at 3.175 3.175 0)
        (effects (font (size 1.27 1.27)) (justify left))
      )
      (property "Footprint" "" (id 2) (at 0 0 0)
        (effects (font (size 1.27 1.27)) hide)
      )
      (property "Datasheet" "~" (id 3) (at 0 0 0)
        (effects (font (size 1.27 1.27)) hide)
      )
      (property "ki_keywords" "quartz ceramic resonator oscillator" (id 4) (at 0 0 0)
        (effects (font (size 1.27 1.27)) hide)
      )
      (property "ki_description" "Four pin crystal, GND on pins 2 and 4" (id 5) (at 0 0 0)
        (effects (font (size 1.27 1.27)) hide)
      )
      (property "ki_fp_filters" "Crystal*" (id 6) (at 0 0 0)
        (effects (font (size 1.27 1.27)) hide)
      )
      (symbol "Crystal_GND24_0_1"
        (rectangle (start -1.143 2.54) (end 1.143 -2.54)
          (stroke (width 0.3048) (type default) (color 0 0 0 0))
          (fill (type none))
        )
        (polyline
          (pts
            (xy -2.54 0)
            (xy -2.032 0)
          )
          (stroke (width 0) (type default) (color 0 0 0 0))
          (fill (type none))
        )
        (polyline
          (pts
            (xy -2.032 -1.27)
            (xy -2.032 1.27)
          )
          (stroke (width 0.508) (type default) (color 0 0 0 0))
          (fill (type none))
        )
        (polyline
          (pts
            (xy 0 -3.81)
            (xy 0 -3.556)
          )
          (stroke (width 0) (type default) (color 0 0 0 0))
          (fill (type none))
        )
        (polyline
          (pts
            (xy 0 3.556)
            (xy 0 3.81)
          )
          (stroke (width 0) (type default) (color 0 0 0 0))
          (fill (type none))
        )
        (polyline
          (pts
            (xy 2.032 -1.27)
            (xy 2.032 1.27)
          )
          (stroke (width 0.508) (type default) (color 0 0 0 0))
          (fill (type none))
        )
        (polyline
          (pts
            (xy 2.032 0)
            (xy 2.54 0)
          )
          (stroke (width 0) (type default) (color 0 0 0 0))
          (fill (type none))
        )
        (polyline
          (pts
            (xy -2.54 -2.286)
            (xy -2.54 -3.556)
            (xy 2.54 -3.556)
            (xy 2.54 -2.286)
          )
          (stroke (width 0) (type default) (color 0 0 0 0))
          (fill (type none))
        )
        (polyline
          (pts
            (xy -2.54 2.286)
            (xy -2.54 3.556)
            (xy 2.54 3.556)
            (xy 2.54 2.286)
          )
          (stroke (width 0) (type default) (color 0 0 0 0))
          (fill (type none))
        )
      )
      (symbol "Crystal_GND24_1_1"
        (pin passive line (at -3.81 0 0) (length 1.27)
          (name "1" (effects (font (size 1.27 1.27))))
          (number "1" (effects (font (size 1.27 1.27))))
        )
        (pin passive line (at 0 5.08 270) (length 1.27)
          (name "2" (effects (font (size 1.27 1.27))))
          (number "2" (effects (font (size 1.27 1.27))))
        )
        (pin passive line (at 3.81 0 180) (length 1.27)
          (name "3" (effects (font (size 1.27 1.27))))
          (number "3" (effects (font (size 1.27 1.27))))
        )
        (pin passive line (at 0 -5.08 90) (length 1.27)
          (name "4" (effects (font (size 1.27 1.27))))
          (number "4" (effects (font (size 1.27 1.27))))
        )
      )
    )
    (symbol "Device:L" (pin_numbers hide) (pin_names (offset 1.016) hide) (in_bom yes) (on_board yes)
      (property "Reference" "L" (id 0) (at -1.27 0 90)
        (effects (font (size 1.27 1.27)))
      )
      (property "Value" "L" (id 1) (at 1.905 0 90)
        (effects (font (size 1.27 1.27)))
      )
      (property "Footprint" "" (id 2) (at 0 0 0)
        (effects (font (size 1.27 1.27)) hide)
      )
      (property "Datasheet" "~" (id 3) (at 0 0 0)
        (effects (font (size 1.27 1.27)) hide)
      )
      (property "ki_keywords" "inductor choke coil reactor magnetic" (id 4) (at 0 0 0)
        (effects (font (size 1.27 1.27)) hide)
      )
      (property "ki_description" "Inductor" (id 5) (at 0 0 0)
        (effects (font (size 1.27 1.27)) hide)
      )
      (property "ki_fp_filters" "Choke_* *Coil* Inductor_* L_*" (id 6) (at 0 0 0)
        (effects (font (size 1.27 1.27)) hide)
      )
      (symbol "L_0_1"
        (arc (start 0 -2.54) (mid 0.635 -1.905) (end 0 -1.27)
          (stroke (width 0) (type default) (color 0 0 0 0))
          (fill (type none))
        )
        (arc (start 0 -1.27) (mid 0.635 -0.635) (end 0 0)
          (stroke (width 0) (type default) (color 0 0 0 0))
          (fill (type none))
        )
        (arc (start 0 0) (mid 0.635 0.635) (end 0 1.27)
          (stroke (width 0) (type default) (color 0 0 0 0))
          (fill (type none))
        )
        (arc (start 0 1.27) (mid 0.635 1.905) (end 0 2.54)
          (stroke (width 0) (type default) (color 0 0 0 0))
          (fill (type none))
        )
      )
      (symbol "L_1_1"
        (pin passive line (at 0 3.81 270) (length 1.27)
          (name "1" (effects (font (size 1.27 1.27))))
          (number "1" (effects (font (size 1.27 1.27))))
        )
        (pin passive line (at 0 -3.81 90) (length 1.27)
          (name "2" (effects (font (size 1.27 1.27))))
          (number "2" (effects (font (size 1.27 1.27))))
        )
      )
    )
    (symbol "Device:R" (pin_numbers hide) (pin_names (offset 0)) (in_bom yes) (on_board yes)
      (property "Reference" "R" (id 0) (at 2.032 0 90)
        (effects (font (size 1.27 1.27)))
      )
      (property "Value" "R" (id 1) (at 0 0 90)
        (effects (font (size 1.27 1.27)))
      )
      (property "Footprint" "" (id 2) (at -1.778 0 90)
        (effects (font (size 1.27 1.27)) hide)
      )
      (property "Datasheet" "~" (id 3) (at 0 0 0)
        (effects (font (size 1.27 1.27)) hide)
      )
      (property "ki_keywords" "R res resistor" (id 4) (at 0 0 0)
        (effects (font (size 1.27 1.27)) hide)
      )
      (property "ki_description" "Resistor" (id 5) (at 0 0 0)
        (effects (font (size 1.27 1.27)) hide)
      )
      (property "ki_fp_filters" "R_*" (id 6) (at 0 0 0)
        (effects (font (size 1.27 1.27)) hide)
      )
      (symbol "R_0_1"
        (rectangle (start -1.016 -2.54) (end 1.016 2.54)
          (stroke (width 0.254) (type default) (color 0 0 0 0))
          (fill (type none))
        )
      )
      (symbol "R_1_1"
        (pin passive line (at 0 3.81 270) (length 1.27)
          (name "~" (effects (font (size 1.27 1.27))))
          (number "1" (effects (font (size 1.27 1.27))))
        )
        (pin passive line (at 0 -3.81 90) (length 1.27)
          (name "~" (effects (font (size 1.27 1.27))))
          (number "2" (effects (font (size 1.27 1.27))))
        )
      )
    )
    (symbol "Espressif:ESP32-C3" (in_bom yes) (on_board yes)
      (property "Reference" "U" (id 0) (at -25.4 35.56 0)
        (effects (font (size 1.27 1.27)) (justify left))
      )
      (property "Value" "ESP32-C3" (id 1) (at -25.4 33.02 0)
        (effects (font (size 1.27 1.27)) (justify left))
      )
      (property "Footprint" "Package_DFN_QFN:QFN-32-1EP_5x5mm_P0.5mm_EP3.45x3.45mm" (id 2) (at 0 -30.48 0)
        (effects (font (size 1.27 1.27)) hide)
      )
      (property "Datasheet" "https://www.espressif.com/sites/default/files/documentation/esp32-c3_datasheet_en.pdf" (id 3) (at 0 -33.02 0)
        (effects (font (size 1.27 1.27)) hide)
      )
      (property "ki_description" "ESP32-C3 family is an ultra-low-power MCU-based SoC solution that supports 2.4 GHz Wi-Fi and Bluetooth®Low Energy (Bluetooth LE)." (id 4) (at 0 0 0)
        (effects (font (size 1.27 1.27)) hide)
      )
      (symbol "ESP32-C3_0_0"
        (text "ESP32-C3" (at 0 -22.86 0)
          (effects (font (size 2.54 2.54)))
        )
        (pin bidirectional line (at -27.94 27.94 0) (length 2.54)
          (name "LNA_IN" (effects (font (size 1.27 1.27))))
          (number "1" (effects (font (size 1.27 1.27))))
        )
        (pin bidirectional line (at -27.94 2.54 0) (length 2.54)
          (name "MTDI/GPIO5/ADC2_CH0" (effects (font (size 1.27 1.27))))
          (number "10" (effects (font (size 1.27 1.27))))
        )
        (pin power_in line (at -27.94 -22.86 0) (length 2.54)
          (name "VDD3P3_RTC" (effects (font (size 1.27 1.27))))
          (number "11" (effects (font (size 1.27 1.27))))
        )
        (pin bidirectional line (at -27.94 0 0) (length 2.54)
          (name "MTCK/GPIO6" (effects (font (size 1.27 1.27))))
          (number "12" (effects (font (size 1.27 1.27))))
        )
        (pin bidirectional line (at -27.94 -2.54 0) (length 2.54)
          (name "MTDO/GPIO7" (effects (font (size 1.27 1.27))))
          (number "13" (effects (font (size 1.27 1.27))))
        )
        (pin bidirectional line (at 27.94 -12.7 180) (length 2.54)
          (name "GPIO8" (effects (font (size 1.27 1.27))))
          (number "14" (effects (font (size 1.27 1.27))))
        )
        (pin bidirectional line (at 27.94 -10.16 180) (length 2.54)
          (name "GPIO9/BOOT" (effects (font (size 1.27 1.27))))
          (number "15" (effects (font (size 1.27 1.27))))
        )
        (pin bidirectional line (at 27.94 -7.62 180) (length 2.54)
          (name "GPIO10" (effects (font (size 1.27 1.27))))
          (number "16" (effects (font (size 1.27 1.27))))
        )
        (pin power_in line (at -27.94 -25.4 0) (length 2.54)
          (name "VDD3P3_CPU" (effects (font (size 1.27 1.27))))
          (number "17" (effects (font (size 1.27 1.27))))
        )
        (pin bidirectional line (at 27.94 -5.08 180) (length 2.54)
          (name "VDD_SPI/GPIO11" (effects (font (size 1.27 1.27))))
          (number "18" (effects (font (size 1.27 1.27))))
        )
        (pin bidirectional line (at 27.94 -2.54 180) (length 2.54)
          (name "SPIHD/GPIO12" (effects (font (size 1.27 1.27))))
          (number "19" (effects (font (size 1.27 1.27))))
        )
        (pin power_in line (at -27.94 -20.32 0) (length 2.54)
          (name "VDD3P3" (effects (font (size 1.27 1.27))))
          (number "2" (effects (font (size 1.27 1.27))))
        )
        (pin bidirectional line (at 27.94 0 180) (length 2.54)
          (name "SPIWP/GPIO13" (effects (font (size 1.27 1.27))))
          (number "20" (effects (font (size 1.27 1.27))))
        )
        (pin bidirectional line (at 27.94 2.54 180) (length 2.54)
          (name "SPICS0/GPIO14" (effects (font (size 1.27 1.27))))
          (number "21" (effects (font (size 1.27 1.27))))
        )
        (pin bidirectional line (at 27.94 5.08 180) (length 2.54)
          (name "SPICLK/GPIO15" (effects (font (size 1.27 1.27))))
          (number "22" (effects (font (size 1.27 1.27))))
        )
        (pin bidirectional line (at 27.94 7.62 180) (length 2.54)
          (name "SPID/GPIO16" (effects (font (size 1.27 1.27))))
          (number "23" (effects (font (size 1.27 1.27))))
        )
        (pin bidirectional line (at 27.94 10.16 180) (length 2.54)
          (name "SPIQ/GPIO17" (effects (font (size 1.27 1.27))))
          (number "24" (effects (font (size 1.27 1.27))))
        )
        (pin bidirectional line (at 27.94 17.78 180) (length 2.54)
          (name "GPIO18/USB_D-" (effects (font (size 1.27 1.27))))
          (number "25" (effects (font (size 1.27 1.27))))
        )
        (pin bidirectional line (at 27.94 20.32 180) (length 2.54)
          (name "GPIO19/USB_D+" (effects (font (size 1.27 1.27))))
          (number "26" (effects (font (size 1.27 1.27))))
        )
        (pin bidirectional line (at 27.94 25.4 180) (length 2.54)
          (name "U0RXD/GPIO20" (effects (font (size 1.27 1.27))))
          (number "27" (effects (font (size 1.27 1.27))))
        )
        (pin bidirectional line (at 27.94 27.94 180) (length 2.54)
          (name "U0TXD/GPIO21" (effects (font (size 1.27 1.27))))
          (number "28" (effects (font (size 1.27 1.27))))
        )
        (pin output line (at -27.94 12.7 0) (length 2.54)
          (name "XTAL_N" (effects (font (size 1.27 1.27))))
          (number "29" (effects (font (size 1.27 1.27))))
        )
        (pin input line (at -27.94 10.16 0) (length 2.54)
          (name "XTAL_P" (effects (font (size 1.27 1.27))))
          (number "30" (effects (font (size 1.27 1.27))))
        )
        (pin power_in line (at -27.94 -17.78 0) (length 2.54)
          (name "VDDA" (effects (font (size 1.27 1.27))))
          (number "31" (effects (font (size 1.27 1.27))))
        )
        (pin power_in line (at 27.94 -25.4 180) (length 2.54)
          (name "GND" (effects (font (size 1.27 1.27))))
          (number "33" (effects (font (size 1.27 1.27))))
        )
        (pin output line (at -27.94 20.32 0) (length 2.54)
          (name "XTAL_32K_P/ADC1_CH0" (effects (font (size 1.27 1.27))))
          (number "4" (effects (font (size 1.27 1.27))))
        )
        (pin input line (at -27.94 17.78 0) (length 2.54)
          (name "XTAL_32K_N/ADC1_CH1" (effects (font (size 1.27 1.27))))
          (number "5" (effects (font (size 1.27 1.27))))
        )
        (pin bidirectional line (at 27.94 -17.78 180) (length 2.54)
          (name "GPIO2/ADC1_CH2" (effects (font (size 1.27 1.27))))
          (number "6" (effects (font (size 1.27 1.27))))
        )
        (pin input line (at -27.94 22.86 0) (length 2.54)
          (name "CHIP_EN" (effects (font (size 1.27 1.27))))
          (number "7" (effects (font (size 1.27 1.27))))
        )
        (pin bidirectional line (at 27.94 -15.24 180) (length 2.54)
          (name "GPIO3/ADC1_CH3" (effects (font (size 1.27 1.27))))
          (number "8" (effects (font (size 1.27 1.27))))
        )
        (pin bidirectional line (at -27.94 5.08 0) (length 2.54)
          (name "MTMS/GPIO4/ADC1_CH4" (effects (font (size 1.27 1.27))))
          (number "9" (effects (font (size 1.27 1.27))))
        )
      )
      (symbol "ESP32-C3_0_1"
        (rectangle (start -25.4 30.48) (end 25.4 -27.94)
          (stroke (width 0.254) (type default) (color 0 0 0 0))
          (fill (type background))
        )
        (pin passive line (at -27.94 -20.32 0) (length 2.54) hide
          (name "VDD3P3" (effects (font (size 1.27 1.27))))
          (number "3" (effects (font (size 1.27 1.27))))
        )
        (pin passive line (at -27.94 -17.78 0) (length 2.54) hide
          (name "VDDA" (effects (font (size 1.27 1.27))))
          (number "32" (effects (font (size 1.27 1.27))))
        )
      )
    )
    (symbol "Jumper:SolderJumper_3_Open" (pin_names (offset 0) hide) (in_bom yes) (on_board yes)
      (property "Reference" "JP" (id 0) (at -2.54 -2.54 0)
        (effects (font (size 1.27 1.27)))
      )
      (property "Value" "SolderJumper_3_Open" (id 1) (at 0 2.794 0)
        (effects (font (size 1.27 1.27)))
      )
      (property "Footprint" "" (id 2) (at 0 0 0)
        (effects (font (size 1.27 1.27)) hide)
      )
      (property "Datasheet" "~" (id 3) (at 0 0 0)
        (effects (font (size 1.27 1.27)) hide)
      )
      (property "ki_keywords" "Solder Jumper SPDT" (id 4) (at 0 0 0)
        (effects (font (size 1.27 1.27)) hide)
      )
      (property "ki_description" "Solder Jumper, 3-pole, open" (id 5) (at 0 0 0)
        (effects (font (size 1.27 1.27)) hide)
      )
      (property "ki_fp_filters" "SolderJumper*Open*" (id 6) (at 0 0 0)
        (effects (font (size 1.27 1.27)) hide)
      )
      (symbol "SolderJumper_3_Open_0_1"
        (arc (start -1.016 1.016) (mid -2.032 0) (end -1.016 -1.016)
          (stroke (width 0) (type default) (color 0 0 0 0))
          (fill (type none))
        )
        (arc (start -1.016 1.016) (mid -2.032 0) (end -1.016 -1.016)
          (stroke (width 0) (type default) (color 0 0 0 0))
          (fill (type outline))
        )
        (rectangle (start -0.508 1.016) (end 0.508 -1.016)
          (stroke (width 0) (type default) (color 0 0 0 0))
          (fill (type outline))
        )
        (polyline
          (pts
            (xy -2.54 0)
            (xy -2.032 0)
          )
          (stroke (width 0) (type default) (color 0 0 0 0))
          (fill (type none))
        )
        (polyline
          (pts
            (xy -1.016 1.016)
            (xy -1.016 -1.016)
          )
          (stroke (width 0) (type default) (color 0 0 0 0))
          (fill (type none))
        )
        (polyline
          (pts
            (xy 0 -1.27)
            (xy 0 -1.016)
          )
          (stroke (width 0) (type default) (color 0 0 0 0))
          (fill (type none))
        )
        (polyline
          (pts
            (xy 1.016 1.016)
            (xy 1.016 -1.016)
          )
          (stroke (width 0) (type default) (color 0 0 0 0))
          (fill (type none))
        )
        (polyline
          (pts
            (xy 2.54 0)
            (xy 2.032 0)
          )
          (stroke (width 0) (type default) (color 0 0 0 0))
          (fill (type none))
        )
        (arc (start 1.016 -1.016) (mid 2.032 0) (end 1.016 1.016)
          (stroke (width 0) (type default) (color 0 0 0 0))
          (fill (type none))
        )
        (arc (start 1.016 -1.016) (mid 2.032 0) (end 1.016 1.016)
          (stroke (width 0) (type default) (color 0 0 0 0))
          (fill (type outline))
        )
      )
      (symbol "SolderJumper_3_Open_1_1"
        (pin passive line (at -5.08 0 0) (length 2.54)
          (name "A" (effects (font (size 1.27 1.27))))
          (number "1" (effects (font (size 1.27 1.27))))
        )
        (pin passive line (at 0 -3.81 90) (length 2.54)
          (name "C" (effects (font (size 1.27 1.27))))
          (number "2" (effects (font (size 1.27 1.27))))
        )
        (pin passive line (at 5.08 0 180) (length 2.54)
          (name "B" (effects (font (size 1.27 1.27))))
          (number "3" (effects (font (size 1.27 1.27))))
        )
      )
    )
    (symbol "Switch:SW_SPST" (pin_names (offset 0) hide) (in_bom yes) (on_board yes)
      (property "Reference" "SW" (id 0) (at 0 3.175 0)
        (effects (font (size 1.27 1.27)))
      )
      (property "Value" "SW_SPST" (id 1) (at 0 -2.54 0)
        (effects (font (size 1.27 1.27)))
      )
      (property "Footprint" "" (id 2) (at 0 0 0)
        (effects (font (size 1.27 1.27)) hide)
      )
      (property "Datasheet" "~" (id 3) (at 0 0 0)
        (effects (font (size 1.27 1.27)) hide)
      )
      (property "ki_keywords" "switch lever" (id 4) (at 0 0 0)
        (effects (font (size 1.27 1.27)) hide)
      )
      (property "ki_description" "Single Pole Single Throw (SPST) switch" (id 5) (at 0 0 0)
        (effects (font (size 1.27 1.27)) hide)
      )
      (symbol "SW_SPST_0_0"
        (circle (center -2.032 0) (radius 0.508)
          (stroke (width 0) (type default) (color 0 0 0 0))
          (fill (type none))
        )
        (polyline
          (pts
            (xy -1.524 0.254)
            (xy 1.524 1.778)
          )
          (stroke (width 0) (type default) (color 0 0 0 0))
          (fill (type none))
        )
        (circle (center 2.032 0) (radius 0.508)
          (stroke (width 0) (type default) (color 0 0 0 0))
          (fill (type none))
        )
      )
      (symbol "SW_SPST_1_1"
        (pin passive line (at -5.08 0 0) (length 2.54)
          (name "A" (effects (font (size 1.27 1.27))))
          (number "1" (effects (font (size 1.27 1.27))))
        )
        (pin passive line (at 5.08 0 180) (length 2.54)
          (name "B" (effects (font (size 1.27 1.27))))
          (number "2" (effects (font (size 1.27 1.27))))
        )
      )
    )
    (symbol "power:+3V3" (power) (pin_names (offset 0)) (in_bom yes) (on_board yes)
      (property "Reference" "#PWR" (id 0) (at 0 -3.81 0)
        (effects (font (size 1.27 1.27)) hide)
      )
      (property "Value" "+3V3" (id 1) (at 0 3.556 0)
        (effects (font (size 1.27 1.27)))
      )
      (property "Footprint" "" (id 2) (at 0 0 0)
        (effects (font (size 1.27 1.27)) hide)
      )
      (property "Datasheet" "" (id 3) (at 0 0 0)
        (effects (font (size 1.27 1.27)) hide)
      )
      (property "ki_keywords" "power-flag" (id 4) (at 0 0 0)
        (effects (font (size 1.27 1.27)) hide)
      )
      (property "ki_description" "Power symbol creates a global label with name \"+3V3\"" (id 5) (at 0 0 0)
        (effects (font (size 1.27 1.27)) hide)
      )
      (symbol "+3V3_0_1"
        (polyline
          (pts
            (xy -0.762 1.27)
            (xy 0 2.54)
          )
          (stroke (width 0) (type default) (color 0 0 0 0))
          (fill (type none))
        )
        (polyline
          (pts
            (xy 0 0)
            (xy 0 2.54)
          )
          (stroke (width 0) (type default) (color 0 0 0 0))
          (fill (type none))
        )
        (polyline
          (pts
            (xy 0 2.54)
            (xy 0.762 1.27)
          )
          (stroke (width 0) (type default) (color 0 0 0 0))
          (fill (type none))
        )
      )
      (symbol "+3V3_1_1"
        (pin power_in line (at 0 0 90) (length 0) hide
          (name "+3V3" (effects (font (size 1.27 1.27))))
          (number "1" (effects (font (size 1.27 1.27))))
        )
      )
    )
    (symbol "power:GND" (power) (pin_names (offset 0)) (in_bom yes) (on_board yes)
      (property "Reference" "#PWR" (id 0) (at 0 -6.35 0)
        (effects (font (size 1.27 1.27)) hide)
      )
      (property "Value" "GND" (id 1) (at 0 -3.81 0)
        (effects (font (size 1.27 1.27)))
      )
      (property "Footprint" "" (id 2) (at 0 0 0)
        (effects (font (size 1.27 1.27)) hide)
      )
      (property "Datasheet" "" (id 3) (at 0 0 0)
        (effects (font (size 1.27 1.27)) hide)
      )
      (property "ki_keywords" "power-flag" (id 4) (at 0 0 0)
        (effects (font (size 1.27 1.27)) hide)
      )
      (property "ki_description" "Power symbol creates a global label with name \"GND\" , ground" (id 5) (at 0 0 0)
        (effects (font (size 1.27 1.27)) hide)
      )
      (symbol "GND_0_1"
        (polyline
          (pts
            (xy 0 0)
            (xy 0 -1.27)
            (xy 1.27 -1.27)
            (xy 0 -2.54)
            (xy -1.27 -1.27)
            (xy 0 -1.27)
          )
          (stroke (width 0) (type default) (color 0 0 0 0))
          (fill (type none))
        )
      )
      (symbol "GND_1_1"
        (pin power_in line (at 0 0 270) (length 0) hide
          (name "GND" (effects (font (size 1.27 1.27))))
          (number "1" (effects (font (size 1.27 1.27))))
        )
      )
    )
    (symbol "power:VCC" (power) (pin_names (offset 0)) (in_bom yes) (on_board yes)
      (property "Reference" "#PWR" (id 0) (at 0 -3.81 0)
        (effects (font (size 1.27 1.27)) hide)
      )
      (property "Value" "VCC" (id 1) (at 0 3.81 0)
        (effects (font (size 1.27 1.27)))
      )
      (property "Footprint" "" (id 2) (at 0 0 0)
        (effects (font (size 1.27 1.27)) hide)
      )
      (property "Datasheet" "" (id 3) (at 0 0 0)
        (effects (font (size 1.27 1.27)) hide)
      )
      (property "ki_keywords" "power-flag" (id 4) (at 0 0 0)
        (effects (font (size 1.27 1.27)) hide)
      )
      (property "ki_description" "Power symbol creates a global label with name \"VCC\"" (id 5) (at 0 0 0)
        (effects (font (size 1.27 1.27)) hide)
      )
      (symbol "VCC_0_1"
        (polyline
          (pts
            (xy -0.762 1.27)
            (xy 0 2.54)
          )
          (stroke (width 0) (type default) (color 0 0 0 0))
          (fill (type none))
        )
        (polyline
          (pts
            (xy 0 0)
            (xy 0 2.54)
          )
          (stroke (width 0) (type default) (color 0 0 0 0))
          (fill (type none))
        )
        (polyline
          (pts
            (xy 0 2.54)
            (xy 0.762 1.27)
          )
          (stroke (width 0) (type default) (color 0 0 0 0))
          (fill (type none))
        )
      )
      (symbol "VCC_1_1"
        (pin power_in line (at 0 0 90) (length 0) hide
          (name "VCC" (effects (font (size 1.27 1.27))))
          (number "1" (effects (font (size 1.27 1.27))))
        )
      )
    )
  )

  (junction (at 80.01 105.41) (diameter 0) (color 0 0 0 0)
    (uuid 04b895f8-78a1-4fa0-8af6-bff36a03ddc3)
  )
  (junction (at 67.31 92.71) (diameter 0) (color 0 0 0 0)
    (uuid 095eabd7-8a0f-40ae-8575-ed106190dda7)
  )
  (junction (at 67.31 113.03) (diameter 0) (color 0 0 0 0)
    (uuid 0e5eb354-8812-4e3e-b93a-3cd03b70d4b1)
  )
  (junction (at 92.71 115.57) (diameter 0) (color 0 0 0 0)
    (uuid 0fc63cee-d17e-49c5-b752-c80c3a365464)
  )
  (junction (at 54.61 113.03) (diameter 0) (color 0 0 0 0)
    (uuid 24cada3c-d9c6-461b-92f3-b79a20417685)
  )
  (junction (at 110.49 40.64) (diameter 0) (color 0 0 0 0)
    (uuid 2e4db022-da2e-4605-9a39-ffcb19da3b9c)
  )
  (junction (at 82.55 49.53) (diameter 0) (color 0 0 0 0)
    (uuid 372912d3-0a03-4563-8768-622721e62e87)
  )
  (junction (at 240.03 90.17) (diameter 0) (color 0 0 0 0)
    (uuid 3d8d7f72-a0bc-4edf-8846-e18d48919c47)
  )
  (junction (at 97.79 95.25) (diameter 0) (color 0 0 0 0)
    (uuid 525a7064-55df-46bf-8fdc-75a569dc13bc)
  )
  (junction (at 92.71 102.87) (diameter 0) (color 0 0 0 0)
    (uuid 6d1f2436-ed88-410c-9b41-e6c4f346a55c)
  )
  (junction (at 92.71 128.27) (diameter 0) (color 0 0 0 0)
    (uuid 75a9ffd0-6d9e-4d55-bd93-1b1ce7e243dc)
  )
  (junction (at 110.49 48.26) (diameter 0) (color 0 0 0 0)
    (uuid 7d6069df-8b9d-4cd6-88ea-41edf8268b19)
  )
  (junction (at 46.99 67.31) (diameter 0) (color 0 0 0 0)
    (uuid 85e0fcdf-fb3d-4986-884b-e7290937fbc5)
  )
  (junction (at 82.55 62.23) (diameter 0) (color 0 0 0 0)
    (uuid a755c569-1dc2-4276-a81a-82e3eff866d7)
  )
  (junction (at 76.835 49.53) (diameter 0) (color 0 0 0 0)
    (uuid aeaf2554-c305-426e-a20b-1d2ccb0e55e2)
  )
  (junction (at 39.37 73.66) (diameter 0) (color 0 0 0 0)
    (uuid af89cd96-d63d-4bb4-8949-2b0f9fd2a982)
  )
  (junction (at 95.25 41.91) (diameter 0) (color 0 0 0 0)
    (uuid b1f59d9a-2da8-4b52-bbe9-54dbef277cd8)
  )
  (junction (at 107.95 102.87) (diameter 0) (color 0 0 0 0)
    (uuid b6c42940-a447-4025-85ef-33de4ae1b63c)
  )
  (junction (at 92.71 95.25) (diameter 0) (color 0 0 0 0)
    (uuid bc81fc2a-55be-47d0-b3f3-c2a5a4988130)
  )
  (junction (at 46.99 80.01) (diameter 0) (color 0 0 0 0)
    (uuid c50a5f48-d913-4646-acec-79d5cc07103b)
  )
  (junction (at 107.95 110.49) (diameter 0) (color 0 0 0 0)
    (uuid d0fa911e-f12e-43cf-b825-6eea42f78a02)
  )
  (junction (at 107.95 107.95) (diameter 0) (color 0 0 0 0)
    (uuid d1403e62-39c2-490c-a86c-d4df45ffb98b)
  )
  (junction (at 39.37 90.17) (diameter 0) (color 0 0 0 0)
    (uuid d1e2426f-6042-47f7-af8f-2accd163fb92)
  )
  (junction (at 198.755 97.79) (diameter 0) (color 0 0 0 0)
    (uuid d789676a-3633-4cbb-bc83-5ba3f56cd5ca)
  )
  (junction (at 39.37 113.03) (diameter 0) (color 0 0 0 0)
    (uuid e475cc71-4e0b-4c7e-b9cb-6105cbbe7da3)
  )
  (junction (at 102.87 62.23) (diameter 0) (color 0 0 0 0)
    (uuid eec8a0d9-cd0a-49a8-a6e9-a25e6594cead)
  )
  (junction (at 80.01 92.71) (diameter 0) (color 0 0 0 0)
    (uuid efb48889-95ac-4388-ab32-d4927028e817)
  )
  (junction (at 82.55 69.85) (diameter 0) (color 0 0 0 0)
    (uuid fe25768b-9517-416a-bbe6-b2792a74c175)
  )

  (no_connect (at 171.45 87.63) (uuid b0ea6839-95dc-4ec5-a0eb-4ff8da20e874))
  (no_connect (at 171.45 85.09) (uuid b0ea6839-95dc-4ec5-a0eb-4ff8da20e875))
  (no_connect (at 171.45 74.93) (uuid b562f097-b02b-4734-b6b8-cc38a7ddfa9a))
  (no_connect (at 171.45 77.47) (uuid b562f097-b02b-4734-b6b8-cc38a7ddfa9b))
  (no_connect (at 171.45 80.01) (uuid b562f097-b02b-4734-b6b8-cc38a7ddfa9c))
  (no_connect (at 171.45 82.55) (uuid b562f097-b02b-4734-b6b8-cc38a7ddfa9d))
  (no_connect (at 113.03 38.1) (uuid f23206f0-ca91-4c7c-baf9-1fcd78c0075d))

  (wire (pts (xy 80.01 95.25) (xy 80.01 92.71))
    (stroke (width 0) (type default) (color 0 0 0 0))
    (uuid 0082b65a-7862-41f8-8f76-4c0b06eb648c)
  )
  (wire (pts (xy 82.55 69.85) (xy 71.12 69.85))
    (stroke (width 0) (type default) (color 0 0 0 0))
    (uuid 07e2975e-8383-40a9-967a-16e6274c1ee3)
  )
  (wire (pts (xy 102.87 49.53) (xy 102.87 62.23))
    (stroke (width 0) (type default) (color 0 0 0 0))
    (uuid 0bb304c3-376f-4d13-bd22-dbc949c101dd)
  )
  (wire (pts (xy 168.91 90.17) (xy 240.03 90.17))
    (stroke (width 0) (type default) (color 0 0 0 0))
    (uuid 0c7f8ff0-dde6-4ea6-9315-a7de5b635fb3)
  )
  (wire (pts (xy 97.79 107.95) (xy 107.95 107.95))
    (stroke (width 0) (type default) (color 0 0 0 0))
    (uuid 0f93252b-0b76-44f8-9038-8f75f0f0ad25)
  )
  (wire (pts (xy 92.71 102.87) (xy 97.79 102.87))
    (stroke (width 0) (type default) (color 0 0 0 0))
    (uuid 0fc8dcc2-b6bb-480a-9765-fc686c30e69f)
  )
  (wire (pts (xy 39.37 73.66) (xy 41.91 73.66))
    (stroke (width 0) (type default) (color 0 0 0 0))
    (uuid 14284ba7-98e8-4e11-8d62-3a87dc609708)
  )
  (wire (pts (xy 92.71 128.27) (xy 92.71 130.81))
    (stroke (width 0) (type default) (color 0 0 0 0))
    (uuid 159fb082-707a-4bcb-9a5b-958c5030eb64)
  )
  (wire (pts (xy 123.19 40.64) (xy 123.19 38.1))
    (stroke (width 0) (type default) (color 0 0 0 0))
    (uuid 15dc25eb-37be-4dd1-9f5c-c7f9112659ac)
  )
  (wire (pts (xy 168.91 110.49) (xy 171.45 110.49))
    (stroke (width 0) (type default) (color 0 0 0 0))
    (uuid 18f1429a-48bc-4f1b-93f3-6fcd63606715)
  )
  (wire (pts (xy 97.79 118.11) (xy 107.95 118.11))
    (stroke (width 0) (type default) (color 0 0 0 0))
    (uuid 1bf2b171-e399-49b8-b350-fe2654fb7565)
  )
  (wire (pts (xy 106.68 87.63) (xy 113.03 87.63))
    (stroke (width 0) (type default) (color 0 0 0 0))
    (uuid 2a72bfeb-90f9-4842-ad49-72c605d02c96)
  )
  (wire (pts (xy 168.91 64.77) (xy 171.45 64.77))
    (stroke (width 0) (type default) (color 0 0 0 0))
    (uuid 2c884c24-451e-41aa-8de1-33376db18545)
  )
  (wire (pts (xy 228.6 102.87) (xy 228.6 110.49))
    (stroke (width 0) (type default) (color 0 0 0 0))
    (uuid 33571a99-1ae1-40d8-bc03-3556bc6d39b5)
  )
  (wire (pts (xy 95.25 64.77) (xy 95.25 62.23))
    (stroke (width 0) (type default) (color 0 0 0 0))
    (uuid 38e8157f-b9f5-4f4a-bd1b-9a5a098bdac8)
  )
  (wire (pts (xy 99.06 62.23) (xy 102.87 62.23))
    (stroke (width 0) (type default) (color 0 0 0 0))
    (uuid 3cfba19e-c3b0-4369-9d81-4cd0d5523db0)
  )
  (wire (pts (xy 107.95 110.49) (xy 107.95 107.95))
    (stroke (width 0) (type default) (color 0 0 0 0))
    (uuid 3e4e614b-8ba4-49b0-b400-167fb1d47215)
  )
  (wire (pts (xy 168.91 92.71) (xy 181.61 92.71))
    (stroke (width 0) (type default) (color 0 0 0 0))
    (uuid 3f4d413c-f89e-437d-9270-62e8be8d4b56)
  )
  (wire (pts (xy 110.49 57.15) (xy 113.03 57.15))
    (stroke (width 0) (type default) (color 0 0 0 0))
    (uuid 406d7537-db8a-4a31-9a3c-f9eb80648575)
  )
  (wire (pts (xy 46.99 59.69) (xy 39.37 59.69))
    (stroke (width 0) (type default) (color 0 0 0 0))
    (uuid 43e44791-a43c-43be-977c-03da121c2d3f)
  )
  (wire (pts (xy 99.06 41.91) (xy 99.06 62.23))
    (stroke (width 0) (type default) (color 0 0 0 0))
    (uuid 45959715-3914-4687-8ed6-febc93869b34)
  )
  (wire (pts (xy 52.07 73.66) (xy 54.61 73.66))
    (stroke (width 0) (type default) (color 0 0 0 0))
    (uuid 4993cc71-a179-43c2-a59c-d54e68a85259)
  )
  (wire (pts (xy 92.71 128.27) (xy 97.79 128.27))
    (stroke (width 0) (type default) (color 0 0 0 0))
    (uuid 4bdcff27-fb2a-483f-9775-16a3b1c95118)
  )
  (wire (pts (xy 58.42 74.93) (xy 58.42 80.01))
    (stroke (width 0) (type default) (color 0 0 0 0))
    (uuid 4f6d801d-bada-4b6b-8fde-214ab299a2c0)
  )
  (wire (pts (xy 113.03 64.77) (xy 95.25 64.77))
    (stroke (width 0) (type default) (color 0 0 0 0))
    (uuid 52298f9b-8516-47cd-a3e4-ab45843806e4)
  )
  (wire (pts (xy 254 131.445) (xy 259.08 131.445))
    (stroke (width 0) (type default) (color 0 0 0 0))
    (uuid 52fa40aa-5af1-40b8-b963-4ba9f18d264e)
  )
  (wire (pts (xy 113.03 67.31) (xy 95.25 67.31))
    (stroke (width 0) (type default) (color 0 0 0 0))
    (uuid 533ff3bd-6ced-4103-98fa-5af0e0d3bce9)
  )
  (wire (pts (xy 110.49 40.64) (xy 110.49 38.1))
    (stroke (width 0) (type default) (color 0 0 0 0))
    (uuid 58203c19-73a6-4093-be6f-3b4430517fca)
  )
  (wire (pts (xy 168.91 77.47) (xy 171.45 77.47))
    (stroke (width 0) (type default) (color 0 0 0 0))
    (uuid 58341f47-05cd-4e16-bd03-f82c5de9ea92)
  )
  (wire (pts (xy 113.03 102.87) (xy 107.95 102.87))
    (stroke (width 0) (type default) (color 0 0 0 0))
    (uuid 589b593f-3c44-41b9-87b5-3465c48cfca0)
  )
  (wire (pts (xy 113.03 110.49) (xy 107.95 110.49))
    (stroke (width 0) (type default) (color 0 0 0 0))
    (uuid 598dfd7f-a5a4-40fa-a90f-c058b14b1e3b)
  )
  (polyline (pts (xy 258.445 124.46) (xy 272.415 124.46))
    (stroke (width 0) (type default) (color 0 0 0 0))
    (uuid 59be6915-9a79-4dc0-9965-c80e88f150d2)
  )

  (wire (pts (xy 240.03 87.63) (xy 240.03 90.17))
    (stroke (width 0) (type default) (color 0 0 0 0))
    (uuid 5aeb7728-dcd5-42cd-a023-c396f19ad74c)
  )
  (polyline (pts (xy 238.76 144.145) (xy 272.415 144.145))
    (stroke (width 0) (type default) (color 0 0 0 0))
    (uuid 5b016c55-a13a-413e-91eb-be68a7e81657)
  )

  (wire (pts (xy 68.58 72.39) (xy 113.03 72.39))
    (stroke (width 0) (type default) (color 0 0 0 0))
    (uuid 5ee4c2e5-21f1-40da-9670-eac1a1e5b97d)
  )
  (wire (pts (xy 106.68 82.55) (xy 113.03 82.55))
    (stroke (width 0) (type default) (color 0 0 0 0))
    (uuid 64c95646-b0a6-4353-a696-4e981061b49c)
  )
  (wire (pts (xy 82.55 62.23) (xy 95.25 62.23))
    (stroke (width 0) (type default) (color 0 0 0 0))
    (uuid 6689c7ba-636d-4709-b16d-2ac252835b43)
  )
  (wire (pts (xy 106.68 80.01) (xy 113.03 80.01))
    (stroke (width 0) (type default) (color 0 0 0 0))
    (uuid 674848fe-44e1-4d69-baa8-b7e6d0ba869a)
  )
  (wire (pts (xy 102.87 62.23) (xy 113.03 62.23))
    (stroke (width 0) (type default) (color 0 0 0 0))
    (uuid 67b37027-dc9c-420f-a0cc-11fc7d771704)
  )
  (wire (pts (xy 113.03 107.95) (xy 107.95 107.95))
    (stroke (width 0) (type default) (color 0 0 0 0))
    (uuid 69c5aba3-e9a4-476b-ab26-c54aaf1ea5d1)
  )
  (wire (pts (xy 95.25 67.31) (xy 95.25 69.85))
    (stroke (width 0) (type default) (color 0 0 0 0))
    (uuid 6b009dee-e774-427e-9b3f-afcadfa5d0bb)
  )
  (wire (pts (xy 71.12 54.61) (xy 71.12 49.53))
    (stroke (width 0) (type default) (color 0 0 0 0))
    (uuid 6b8e5390-f1c7-4ec2-b5a3-0abb105c0341)
  )
  (wire (pts (xy 80.01 105.41) (xy 113.03 105.41))
    (stroke (width 0) (type default) (color 0 0 0 0))
    (uuid 6cbe8e8a-f641-4bb3-a01b-ae54aa3f0277)
  )
  (wire (pts (xy 71.12 69.85) (xy 71.12 62.23))
    (stroke (width 0) (type default) (color 0 0 0 0))
    (uuid 6e8de2ca-1eef-4bc1-b7da-e6e9f22103a8)
  )
  (wire (pts (xy 46.99 87.63) (xy 46.99 90.17))
    (stroke (width 0) (type default) (color 0 0 0 0))
    (uuid 6f4b4a98-3b46-4923-a5df-eec3729a48d5)
  )
  (wire (pts (xy 168.91 59.69) (xy 171.45 59.69))
    (stroke (width 0) (type default) (color 0 0 0 0))
    (uuid 7262cc2d-b219-49cf-9e8f-7beb9defa079)
  )
  (wire (pts (xy 168.91 67.31) (xy 171.45 67.31))
    (stroke (width 0) (type default) (color 0 0 0 0))
    (uuid 799fec8c-a4b9-49c3-8907-e99e4af365a9)
  )
  (polyline (pts (xy 272.415 144.145) (xy 272.415 124.46))
    (stroke (width 0) (type default) (color 0 0 0 0))
    (uuid 7b9a2a5b-918d-4c4d-9a0e-835c3a44a218)
  )

  (wire (pts (xy 97.79 125.73) (xy 97.79 128.27))
    (stroke (width 0) (type default) (color 0 0 0 0))
    (uuid 7cb1e1bc-8b18-4dde-821a-8d5a772426e8)
  )
  (wire (pts (xy 95.25 41.91) (xy 99.06 41.91))
    (stroke (width 0) (type default) (color 0 0 0 0))
    (uuid 7cc9eb3c-34a9-4786-95a7-0ede870949db)
  )
  (wire (pts (xy 54.61 107.95) (xy 54.61 113.03))
    (stroke (width 0) (type default) (color 0 0 0 0))
    (uuid 7e251ee7-7e14-463a-9d3b-37418fe78f22)
  )
  (wire (pts (xy 226.06 102.87) (xy 228.6 102.87))
    (stroke (width 0) (type default) (color 0 0 0 0))
    (uuid 81c4f974-e3a7-4ddc-9a0f-753b09fb6ca9)
  )
  (wire (pts (xy 39.37 73.66) (xy 39.37 90.17))
    (stroke (width 0) (type default) (color 0 0 0 0))
    (uuid 82ae09a3-827f-4a95-99eb-8475a5d59716)
  )
  (wire (pts (xy 46.99 77.47) (xy 46.99 80.01))
    (stroke (width 0) (type default) (color 0 0 0 0))
    (uuid 82ee5964-3f0b-4afd-8ce1-a8e8cff438aa)
  )
  (wire (pts (xy 219.71 100.33) (xy 228.6 100.33))
    (stroke (width 0) (type default) (color 0 0 0 0))
    (uuid 836e661c-ca5b-4848-85fd-ad928edd3f4f)
  )
  (wire (pts (xy 107.95 107.95) (xy 107.95 102.87))
    (stroke (width 0) (type default) (color 0 0 0 0))
    (uuid 83839dd0-6345-482e-bf66-b73c6405cdb6)
  )
  (wire (pts (xy 58.42 74.93) (xy 113.03 74.93))
    (stroke (width 0) (type default) (color 0 0 0 0))
    (uuid 84ce3cc7-ff73-468e-a5ac-44834b05bb62)
  )
  (wire (pts (xy 110.49 57.15) (xy 110.49 48.26))
    (stroke (width 0) (type default) (color 0 0 0 0))
    (uuid 86b8346c-6659-4bed-a1ed-8784af7b1110)
  )
  (wire (pts (xy 92.71 95.25) (xy 97.79 95.25))
    (stroke (width 0) (type default) (color 0 0 0 0))
    (uuid 87eacb8a-4d10-4376-a19d-7c9d240d024e)
  )
  (wire (pts (xy 168.91 87.63) (xy 171.45 87.63))
    (stroke (width 0) (type default) (color 0 0 0 0))
    (uuid 88b049fe-2d66-4138-ac01-12a21979888b)
  )
  (wire (pts (xy 54.61 113.03) (xy 67.31 113.03))
    (stroke (width 0) (type default) (color 0 0 0 0))
    (uuid 8a220adf-127f-43ce-a403-29b4c60de8fd)
  )
  (wire (pts (xy 39.37 115.57) (xy 39.37 113.03))
    (stroke (width 0) (type default) (color 0 0 0 0))
    (uuid 8b453350-4038-47c5-9808-a971f0d9c959)
  )
  (wire (pts (xy 254 141.605) (xy 259.08 141.605))
    (stroke (width 0) (type default) (color 0 0 0 0))
    (uuid 8e65221b-4d32-47fe-836e-fa33667715a3)
  )
  (wire (pts (xy 92.71 102.87) (xy 92.71 115.57))
    (stroke (width 0) (type default) (color 0 0 0 0))
    (uuid 91dae5b5-c5bc-4440-b5c8-6074342a09a2)
  )
  (wire (pts (xy 198.755 97.79) (xy 203.835 102.87))
    (stroke (width 0) (type default) (color 0 0 0 0))
    (uuid 9430278f-e574-4251-9ac5-721d74cb3392)
  )
  (wire (pts (xy 171.45 110.49) (xy 171.45 113.03))
    (stroke (width 0) (type default) (color 0 0 0 0))
    (uuid 95a79aba-a7f3-46fa-8402-c15aa7afb2b2)
  )
  (wire (pts (xy 46.99 67.31) (xy 68.58 67.31))
    (stroke (width 0) (type default) (color 0 0 0 0))
    (uuid 980d4570-241b-47c5-85ad-41c5e47c220f)
  )
  (wire (pts (xy 86.995 41.91) (xy 95.25 41.91))
    (stroke (width 0) (type default) (color 0 0 0 0))
    (uuid 9b10d041-b9dd-4e64-a832-5693033a8dcf)
  )
  (wire (pts (xy 67.31 113.03) (xy 80.01 113.03))
    (stroke (width 0) (type default) (color 0 0 0 0))
    (uuid a0c612cb-dc54-4fb6-b437-404927b33156)
  )
  (wire (pts (xy 82.55 69.85) (xy 95.25 69.85))
    (stroke (width 0) (type default) (color 0 0 0 0))
    (uuid a1ad5fae-586f-4b1a-b0df-937831a501e6)
  )
  (wire (pts (xy 92.71 115.57) (xy 97.79 115.57))
    (stroke (width 0) (type default) (color 0 0 0 0))
    (uuid a29f9b85-fc86-449f-ade1-c75876b7ac95)
  )
  (wire (pts (xy 80.01 102.87) (xy 80.01 105.41))
    (stroke (width 0) (type default) (color 0 0 0 0))
    (uuid a3887266-68b0-4dd7-9a5c-d536fac04d37)
  )
  (wire (pts (xy 168.91 100.33) (xy 181.61 100.33))
    (stroke (width 0) (type default) (color 0 0 0 0))
    (uuid a5ad196f-2139-4b82-83d3-d368e64ab69a)
  )
  (wire (pts (xy 68.58 72.39) (xy 68.58 67.31))
    (stroke (width 0) (type default) (color 0 0 0 0))
    (uuid a9f0d158-6788-4b81-9b1a-782b334217e5)
  )
  (wire (pts (xy 107.95 110.49) (xy 107.95 118.11))
    (stroke (width 0) (type default) (color 0 0 0 0))
    (uuid aacad6aa-013a-4411-8506-23e5bdce15e9)
  )
  (wire (pts (xy 106.68 85.09) (xy 113.03 85.09))
    (stroke (width 0) (type default) (color 0 0 0 0))
    (uuid ac41c881-4747-4f72-a6fa-727a5e87b2f9)
  )
  (wire (pts (xy 92.71 115.57) (xy 92.71 128.27))
    (stroke (width 0) (type default) (color 0 0 0 0))
    (uuid b23be3c4-5936-4dd7-8edd-a4e64d8e8ef4)
  )
  (wire (pts (xy 80.01 92.71) (xy 92.71 92.71))
    (stroke (width 0) (type default) (color 0 0 0 0))
    (uuid b31887da-e847-4f22-b528-729454205eac)
  )
  (wire (pts (xy 76.835 41.91) (xy 76.835 49.53))
    (stroke (width 0) (type default) (color 0 0 0 0))
    (uuid b6e35135-c475-4038-804e-36543fb10107)
  )
  (wire (pts (xy 228.6 110.49) (xy 231.14 110.49))
    (stroke (width 0) (type default) (color 0 0 0 0))
    (uuid b791bbfc-d993-45ad-970d-040d2c3b254d)
  )
  (wire (pts (xy 46.99 67.31) (xy 46.99 69.85))
    (stroke (width 0) (type default) (color 0 0 0 0))
    (uuid bb38474a-23a2-492a-bcf6-117725765e69)
  )
  (wire (pts (xy 168.91 95.25) (xy 181.61 95.25))
    (stroke (width 0) (type default) (color 0 0 0 0))
    (uuid bd01c40c-5ab3-46ee-87b2-c01646d2007d)
  )
  (wire (pts (xy 168.91 82.55) (xy 171.45 82.55))
    (stroke (width 0) (type default) (color 0 0 0 0))
    (uuid be231d57-d76e-4101-87fd-914aabf3dc62)
  )
  (wire (pts (xy 219.71 105.41) (xy 219.71 110.49))
    (stroke (width 0) (type default) (color 0 0 0 0))
    (uuid c22edb8d-2953-4ffc-9cdb-d8b069d12b28)
  )
  (wire (pts (xy 54.61 92.71) (xy 67.31 92.71))
    (stroke (width 0) (type default) (color 0 0 0 0))
    (uuid c272d680-b98c-4788-bc94-68a7e6d325f5)
  )
  (wire (pts (xy 203.835 102.87) (xy 212.09 102.87))
    (stroke (width 0) (type default) (color 0 0 0 0))
    (uuid c3764b6c-5258-4808-9e5a-ed2539442d9f)
  )
  (wire (pts (xy 228.6 100.33) (xy 228.6 97.79))
    (stroke (width 0) (type default) (color 0 0 0 0))
    (uuid c38b5879-d51a-4e67-b36f-0c141025a913)
  )
  (wire (pts (xy 67.31 92.71) (xy 80.01 92.71))
    (stroke (width 0) (type default) (color 0 0 0 0))
    (uuid c66fbc46-cc02-46d6-bc81-95820067c258)
  )
  (wire (pts (xy 92.71 92.71) (xy 92.71 95.25))
    (stroke (width 0) (type default) (color 0 0 0 0))
    (uuid c6e1a102-5327-4d21-a042-c78f7eaa2d19)
  )
  (polyline (pts (xy 240.03 124.46) (xy 238.76 124.46))
    (stroke (width 0) (type default) (color 0 0 0 0))
    (uuid c98770cb-67af-4560-a041-429f541e9a1f)
  )

  (wire (pts (xy 39.37 59.69) (xy 39.37 73.66))
    (stroke (width 0) (type default) (color 0 0 0 0))
    (uuid cc98b95e-4514-4133-a2e4-ac80dd0c829c)
  )
  (polyline (pts (xy 238.76 124.46) (xy 238.76 144.145))
    (stroke (width 0) (type default) (color 0 0 0 0))
    (uuid cd45f899-dac2-4fc7-a150-d9bfc61195a6)
  )

  (wire (pts (xy 87.63 102.87) (xy 92.71 102.87))
    (stroke (width 0) (type default) (color 0 0 0 0))
    (uuid cdfda90d-da09-448d-b633-a1b9b7792499)
  )
  (wire (pts (xy 121.92 40.64) (xy 123.19 40.64))
    (stroke (width 0) (type default) (color 0 0 0 0))
    (uuid ce5a9d32-32e2-4c8d-a007-ab75c1cf5f5e)
  )
  (wire (pts (xy 46.99 90.17) (xy 39.37 90.17))
    (stroke (width 0) (type default) (color 0 0 0 0))
    (uuid cfb29188-1f15-4f73-9f8c-29926d209f93)
  )
  (wire (pts (xy 39.37 113.03) (xy 54.61 113.03))
    (stroke (width 0) (type default) (color 0 0 0 0))
    (uuid d013e598-3356-4a1e-b225-ad769c2aede3)
  )
  (wire (pts (xy 39.37 113.03) (xy 39.37 90.17))
    (stroke (width 0) (type default) (color 0 0 0 0))
    (uuid d22aa0d0-ba83-42f3-912d-b81b99df8fb3)
  )
  (wire (pts (xy 168.91 102.87) (xy 181.61 102.87))
    (stroke (width 0) (type default) (color 0 0 0 0))
    (uuid d344746d-78a5-40c1-8bb3-d19694105924)
  )
  (wire (pts (xy 82.55 54.61) (xy 82.55 49.53))
    (stroke (width 0) (type default) (color 0 0 0 0))
    (uuid d3922c9b-2129-4da2-86a3-8dcfbdd6d748)
  )
  (wire (pts (xy 71.12 49.53) (xy 76.835 49.53))
    (stroke (width 0) (type default) (color 0 0 0 0))
    (uuid d5d792ed-bfff-468c-b62b-6d825850f5bf)
  )
  (wire (pts (xy 111.76 40.64) (xy 110.49 40.64))
    (stroke (width 0) (type default) (color 0 0 0 0))
    (uuid da1ace29-d523-4890-9e06-6975b33ee213)
  )
  (wire (pts (xy 168.91 80.01) (xy 171.45 80.01))
    (stroke (width 0) (type default) (color 0 0 0 0))
    (uuid dd2ba434-5451-4b3b-b7eb-ddce6e548416)
  )
  (wire (pts (xy 107.95 102.87) (xy 107.95 95.25))
    (stroke (width 0) (type default) (color 0 0 0 0))
    (uuid dee3a99e-a8c4-493e-8bc9-51a5db526f37)
  )
  (wire (pts (xy 54.61 92.71) (xy 54.61 100.33))
    (stroke (width 0) (type default) (color 0 0 0 0))
    (uuid e1456b24-f710-4e9a-b494-776be49ec156)
  )
  (wire (pts (xy 116.84 44.45) (xy 116.84 48.26))
    (stroke (width 0) (type default) (color 0 0 0 0))
    (uuid e33d7611-a840-4788-a1e6-68497c6522b2)
  )
  (wire (pts (xy 168.91 57.15) (xy 171.45 57.15))
    (stroke (width 0) (type default) (color 0 0 0 0))
    (uuid e43de321-512b-404d-8805-c22021efc88e)
  )
  (wire (pts (xy 67.31 91.44) (xy 67.31 92.71))
    (stroke (width 0) (type default) (color 0 0 0 0))
    (uuid e5a900c9-4863-48ed-b176-4163c99c464f)
  )
  (wire (pts (xy 46.99 80.01) (xy 58.42 80.01))
    (stroke (width 0) (type default) (color 0 0 0 0))
    (uuid e66d8bbd-c94b-46c7-bd13-dc6a37bc5885)
  )
  (wire (pts (xy 168.91 85.09) (xy 171.45 85.09))
    (stroke (width 0) (type default) (color 0 0 0 0))
    (uuid e94da6e3-1b80-447a-bb6b-c1b1b7407e36)
  )
  (wire (pts (xy 82.55 49.53) (xy 95.25 49.53))
    (stroke (width 0) (type default) (color 0 0 0 0))
    (uuid ec8a5668-59ce-4359-942f-f1b972c859b7)
  )
  (wire (pts (xy 76.835 49.53) (xy 76.835 52.07))
    (stroke (width 0) (type default) (color 0 0 0 0))
    (uuid edf3258f-0085-4343-b2e8-08b49b1aade5)
  )
  (wire (pts (xy 254 136.525) (xy 259.08 136.525))
    (stroke (width 0) (type default) (color 0 0 0 0))
    (uuid ee8813a2-ad33-477e-b32d-84a69390163a)
  )
  (wire (pts (xy 110.49 48.26) (xy 116.84 48.26))
    (stroke (width 0) (type default) (color 0 0 0 0))
    (uuid f2d45db8-7c05-4ac3-a2ae-542623290d3b)
  )
  (wire (pts (xy 76.835 49.53) (xy 82.55 49.53))
    (stroke (width 0) (type default) (color 0 0 0 0))
    (uuid f5d0018e-243e-4fa6-8df3-d3400d7583c5)
  )
  (wire (pts (xy 87.63 95.25) (xy 92.71 95.25))
    (stroke (width 0) (type default) (color 0 0 0 0))
    (uuid f93223ac-c39b-489b-86e7-50a6150ead56)
  )
  (wire (pts (xy 168.91 74.93) (xy 171.45 74.93))
    (stroke (width 0) (type default) (color 0 0 0 0))
    (uuid fb0b2b87-5171-4e94-81ea-3d60cd9b4c13)
  )
  (wire (pts (xy 67.31 107.95) (xy 67.31 113.03))
    (stroke (width 0) (type default) (color 0 0 0 0))
    (uuid fcce5541-1df4-4c7f-8f0c-67ecd517c315)
  )
  (wire (pts (xy 107.95 95.25) (xy 97.79 95.25))
    (stroke (width 0) (type default) (color 0 0 0 0))
    (uuid fdabaac7-5a60-4afa-8887-7cfce79844d6)
  )
  (wire (pts (xy 168.91 97.79) (xy 198.755 97.79))
    (stroke (width 0) (type default) (color 0 0 0 0))
    (uuid fe15c2b6-4535-4059-9b58-e91d79a1d737)
  )
  (wire (pts (xy 67.31 100.33) (xy 67.31 92.71))
    (stroke (width 0) (type default) (color 0 0 0 0))
    (uuid ff72b202-474a-411a-95ab-9e31f5c50256)
  )

  (text "STRAP" (at 143.002 98.806 0)
    (effects (font (size 1.27 1.27)) (justify left bottom))
    (uuid 04e06b62-940a-4604-9b15-7ccb7f6b969f)
  )
  (text "https://docs.espressif.com/projects/esp-idf/en/latest/esp32c3/api-reference/peripherals/gpio.html"
    (at 177.8 157.48 0)
    (effects (font (size 1.27 1.27)) (justify left bottom))
    (uuid 0a5f43c5-3acd-4c55-88ff-ae0378eb5b95)
  )
  (text "To program UART:" (at 240.665 125.73 0)
    (effects (font (size 1.27 1.27)) (justify left bottom))
    (uuid 1d2bf0bd-a35c-4be3-88e2-1bde44218666)
  )
  (text "DNP" (at 266.065 127.889 0)
    (effects (font (size 1.27 1.27)) (justify left bottom))
    (uuid 222c35d0-7262-491a-88c8-2cc27d458ead)
  )
  (text "STRAP" (at 143.002 103.886 0)
    (effects (font (size 1.27 1.27)) (justify left bottom))
    (uuid 2487e543-0fe3-4f50-ad65-7f63b9866e06)
  )
  (text "0,1uF?" (at 92.075 40.64 0)
    (effects (font (size 1.27 1.27)) (justify left bottom))
    (uuid 450d58dd-f622-4dcb-b696-ed922656f827)
  )
  (text "LOW" (at 240.665 141.605 0)
    (effects (font (size 1.27 1.27)) (justify left bottom))
    (uuid 4adec224-4deb-43fc-9303-70b120de6bc1)
  )
  (text "DNP" (at 80.518 67.056 0)
    (effects (font (size 1.27 1.27)) (justify left bottom))
    (uuid 4c19d332-c147-49a0-8bdd-ce5f18d87755)
  )
  (text "https:///projects/esp-idf/en/latest/esp32c3/api-guides/jtag-debugging/configure-other-jtag.html"
    (at 177.8 160.02 0)
    (effects (font (size 1.27 1.27)) (justify left bottom))
    (uuid 9e3c4b2d-43d6-4a80-8b3a-196779d8c944)
  )
  (text "Close to\nVDD_SPI." (at 247.65 90.17 90)
    (effects (font (size 1.27 1.27)) (justify left bottom))
    (uuid b594725f-7f7d-40ac-b10f-9e28ce667b59)
  )
  (text "HIGH" (at 240.665 136.525 0)
    (effects (font (size 1.27 1.27)) (justify left bottom))
    (uuid cbf9859f-e716-4cca-846a-8c6878357976)
  )
  (text "Remember to write a device id or encryption key to the 4 Kbit eFuse!"
    (at 177.8 165.1 0)
    (effects (font (size 1.27 1.27)) (justify left bottom))
    (uuid e452935c-1f96-4b53-8f69-b8b0d0d609bf)
  )
  (text "STRAP" (at 143.002 96.266 0)
    (effects (font (size 1.27 1.27)) (justify left bottom))
    (uuid e58702a3-e82b-4771-b4d9-a6e13574d8f9)
  )
  (text "HIGH" (at 240.665 131.445 0)
    (effects (font (size 1.27 1.27)) (justify left bottom))
    (uuid e8355406-742c-4031-ac23-20bcc1ca5039)
  )
  (text "https://docs.espressif.com/projects/esp-idf/en/latest/esp32c3/api-reference/system/efuse.html"
    (at 177.8 162.56 0)
    (effects (font (size 1.27 1.27)) (justify left bottom))
    (uuid eee44a8e-9017-41d7-939d-5d319979f705)
  )
  (text "DNP" (at 266.065 132.969 0)
    (effects (font (size 1.27 1.27)) (justify left bottom))
    (uuid f127de8f-2ab5-41b7-884e-ade135380db0)
  )
  (text "RESET" (at 78.74 45.085 0)
    (effects (font (size 1.27 1.27)) (justify left bottom))
    (uuid f78d172d-778b-4db7-a453-12a1a42d6b03)
  )
  (text "74LVC1G17W5-7?" (at 216.535 95.885 0)
    (effects (font (size 0.8 0.8)) (justify left bottom))
    (uuid f9ccdf98-0678-4d6c-9291-23d2bce68e2f)
  )

  (label "STRAP_2" (at 254 131.445 180)
    (effects (font (size 1.27 1.27)) (justify right bottom))
    (uuid 46d6941b-4918-4cc6-8042-5a8e3c7dc730)
  )
  (label "STRAP_8" (at 171.45 97.79 0)
    (effects (font (size 1.27 1.27)) (justify left bottom))
    (uuid 532b42a3-07e4-4c29-adc7-efc768413d8c)
  )
  (label "STRAP_2" (at 171.45 102.87 0)
    (effects (font (size 1.27 1.27)) (justify left bottom))
    (uuid 6bc20547-27c7-4fd3-be39-4f72127600d4)
  )
  (label "STRAP_9" (at 254 141.605 180)
    (effects (font (size 1.27 1.27)) (justify right bottom))
    (uuid b5f7275a-726d-4917-8f19-af8c3d6b3764)
  )
  (label "STRAP_9" (at 171.45 95.25 0)
    (effects (font (size 1.27 1.27)) (justify left bottom))
    (uuid faf2fe60-7911-4750-bbc4-886d2355929e)
  )
  (label "STRAP_8" (at 254 136.525 180)
    (effects (font (size 1.27 1.27)) (justify right bottom))
    (uuid fded5155-d886-4db5-93fa-0114700f49c6)
  )

  (global_label "TACT_A" (shape input) (at 181.61 92.71 0) (fields_autoplaced)
    (effects (font (size 1.27 1.27)) (justify left))
    (uuid 05457141-18bd-47cc-b266-9cdccdb8d7b2)
    (property "Intersheet References" "${INTERSHEET_REFS}" (id 0) (at 190.3731 92.6306 0)
      (effects (font (size 1.27 1.27)) (justify left) hide)
    )
  )
  (global_label "SPI_~{CS}" (shape output) (at 106.68 80.01 180) (fields_autoplaced)
    (effects (font (size 1.27 1.27)) (justify right))
    (uuid 07ee5296-896a-4813-b447-ba592863abc3)
    (property "Intersheet References" "${INTERSHEET_REFS}" (id 0) (at 97.7355 79.9306 0)
      (effects (font (size 1.27 1.27)) (justify right) hide)
    )
  )
  (global_label "USB-" (shape bidirectional) (at 171.45 67.31 0) (fields_autoplaced)
    (effects (font (size 1.27 1.27)) (justify left))
    (uuid 2fb54775-d79c-4284-937b-074a341542c0)
    (property "Intersheet References" "${INTERSHEET_REFS}" (id 0) (at 179.2455 67.2306 0)
      (effects (font (size 1.27 1.27)) (justify left) hide)
    )
  )
  (global_label "SPI_SDI" (shape input) (at 106.68 82.55 180) (fields_autoplaced)
    (effects (font (size 1.27 1.27)) (justify right))
    (uuid 3188d4c7-4f57-4e99-be7a-aee31568e946)
    (property "Intersheet References" "${INTERSHEET_REFS}" (id 0) (at 97.1307 82.6294 0)
      (effects (font (size 1.27 1.27)) (justify right) hide)
    )
  )
  (global_label "RGB_DAT" (shape output) (at 231.14 110.49 0) (fields_autoplaced)
    (effects (font (size 1.27 1.27)) (justify left))
    (uuid 55e4a9f4-3e09-4d75-ad4c-618e19e6d599)
    (property "Intersheet References" "${INTERSHEET_REFS}" (id 0) (at 241.6569 110.4106 0)
      (effects (font (size 1.27 1.27)) (justify left) hide)
    )
  )
  (global_label "TACT_B" (shape input) (at 181.61 95.25 0) (fields_autoplaced)
    (effects (font (size 1.27 1.27)) (justify left))
    (uuid 6abc4ed5-ab86-4c39-9e86-ba0fe11658d4)
    (property "Intersheet References" "${INTERSHEET_REFS}" (id 0) (at 190.5545 95.1706 0)
      (effects (font (size 1.27 1.27)) (justify left) hide)
    )
  )
  (global_label "I2C_SDA" (shape bidirectional) (at 171.45 59.69 0) (fields_autoplaced)
    (effects (font (size 1.27 1.27)) (justify left))
    (uuid 6ee16e40-2ec2-436c-891f-4f0111e8ba95)
    (property "Intersheet References" "${INTERSHEET_REFS}" (id 0) (at 181.4831 59.6106 0)
      (effects (font (size 1.27 1.27)) (justify left) hide)
    )
  )
  (global_label "SPI_SDO" (shape output) (at 106.68 87.63 180) (fields_autoplaced)
    (effects (font (size 1.27 1.27)) (justify right))
    (uuid 7887f9dd-1817-4ae1-b1f9-edd35316ba7a)
    (property "Intersheet References" "${INTERSHEET_REFS}" (id 0) (at 96.405 87.7094 0)
      (effects (font (size 1.27 1.27)) (justify right) hide)
    )
  )
  (global_label "USB+" (shape bidirectional) (at 171.45 64.77 0) (fields_autoplaced)
    (effects (font (size 1.27 1.27)) (justify left))
    (uuid 9696cec4-5e81-4cc1-8e56-49f0c994142f)
    (property "Intersheet References" "${INTERSHEET_REFS}" (id 0) (at 179.2455 64.6906 0)
      (effects (font (size 1.27 1.27)) (justify left) hide)
    )
  )
  (global_label "IR_RX" (shape input) (at 181.61 100.33 0) (fields_autoplaced)
    (effects (font (size 1.27 1.27)) (justify left))
    (uuid acb083d2-007a-4173-bfde-cfe40d151e27)
    (property "Intersheet References" "${INTERSHEET_REFS}" (id 0) (at 189.345 100.2506 0)
      (effects (font (size 1.27 1.27)) (justify left) hide)
    )
  )
  (global_label "T_NRST" (shape input) (at 102.87 59.69 0) (fields_autoplaced)
    (effects (font (size 1.27 1.27)) (justify left))
    (uuid aeb04adb-dd9f-4d81-948d-4f81b64dd6f8)
    (property "Intersheet References" "${INTERSHEET_REFS}" (id 0) (at 111.996 59.6106 0)
      (effects (font (size 1.27 1.27)) (justify left) hide)
    )
  )
  (global_label "I2C_SCL" (shape input) (at 171.45 57.15 0) (fields_autoplaced)
    (effects (font (size 1.27 1.27)) (justify left))
    (uuid d7f7aa51-a5d8-4535-81d2-5d1229006ed3)
    (property "Intersheet References" "${INTERSHEET_REFS}" (id 0) (at 181.4226 57.2294 0)
      (effects (font (size 1.27 1.27)) (justify left) hide)
    )
  )
  (global_label "IR_TX" (shape output) (at 181.61 102.87 0) (fields_autoplaced)
    (effects (font (size 1.27 1.27)) (justify left))
    (uuid f011f411-95e9-47d0-bece-639d6cb038d7)
    (property "Intersheet References" "${INTERSHEET_REFS}" (id 0) (at 189.0426 102.7906 0)
      (effects (font (size 1.27 1.27)) (justify left) hide)
    )
  )
  (global_label "SPI_SCK" (shape output) (at 106.68 85.09 180) (fields_autoplaced)
    (effects (font (size 1.27 1.27)) (justify right))
    (uuid fd5924c6-082f-452e-b4a1-85f89528514a)
    (property "Intersheet References" "${INTERSHEET_REFS}" (id 0) (at 96.4655 85.1694 0)
      (effects (font (size 1.27 1.27)) (justify right) hide)
    )
  )

  (symbol (lib_id "Device:C") (at 67.31 104.14 0) (mirror x) (unit 1)
    (in_bom yes) (on_board yes) (fields_autoplaced)
    (uuid 03f8ab8a-00c1-4244-9df5-00428de22dfe)
    (property "Reference" "C4" (id 0) (at 63.5 102.8699 0)
      (effects (font (size 1.27 1.27)) (justify right))
    )
    (property "Value" "0,1uF" (id 1) (at 63.5 105.4099 0)
      (effects (font (size 1.27 1.27)) (justify right))
    )
    (property "Footprint" "Capacitor_SMD:C_0805_2012Metric" (id 2) (at 68.2752 100.33 0)
      (effects (font (size 1.27 1.27)) hide)
    )
    (property "Datasheet" "~" (id 3) (at 67.31 104.14 0)
      (effects (font (size 1.27 1.27)) hide)
    )
    (pin "1" (uuid fd53e62d-e59c-4037-bb3b-1116ae394544))
    (pin "2" (uuid 526edff0-9b55-4ca8-bccb-3208c8325ca5))
  )

  (symbol (lib_id "Device:C") (at 71.12 58.42 0) (mirror x) (unit 1)
    (in_bom yes) (on_board yes) (fields_autoplaced)
    (uuid 16898458-3b92-4e86-ad2b-cb0d1f982cf9)
    (property "Reference" "C5" (id 0) (at 67.31 57.1499 0)
      (effects (font (size 1.27 1.27)) (justify right))
    )
    (property "Value" "15pF" (id 1) (at 67.31 59.6899 0)
      (effects (font (size 1.27 1.27)) (justify right))
    )
    (property "Footprint" "Capacitor_SMD:C_0805_2012Metric" (id 2) (at 72.0852 54.61 0)
      (effects (font (size 1.27 1.27)) hide)
    )
    (property "Datasheet" "~" (id 3) (at 71.12 58.42 0)
      (effects (font (size 1.27 1.27)) hide)
    )
    (pin "1" (uuid a26e9a09-990c-4150-b457-238177e4c47c))
    (pin "2" (uuid 3a10fdb6-2618-4dab-905b-3df9d8cca5f0))
  )

  (symbol (lib_id "Device:R") (at 102.87 45.72 0) (unit 1)
    (in_bom yes) (on_board yes)
    (uuid 17a9527e-f298-4214-9875-52371c7337b4)
    (property "Reference" "R1" (id 0) (at 104.775 44.45 0)
      (effects (font (size 1.27 1.27)) (justify left))
    )
    (property "Value" "10K" (id 1) (at 104.775 46.99 0)
      (effects (font (size 1.27 1.27)) (justify left))
    )
    (property "Footprint" "Resistor_SMD:R_0805_2012Metric" (id 2) (at 101.092 45.72 90)
      (effects (font (size 1.27 1.27)) hide)
    )
    (property "Datasheet" "~" (id 3) (at 102.87 45.72 0)
      (effects (font (size 1.27 1.27)) hide)
    )
    (pin "1" (uuid fa7de77f-6799-4fd3-a463-fe92a7c56274))
    (pin "2" (uuid 93690102-ec2b-4f1c-b69e-04b86c5bd5b2))
  )

  (symbol (lib_id "power:+3V3") (at 240.03 87.63 0) (unit 1)
    (in_bom yes) (on_board yes) (fields_autoplaced)
    (uuid 17de5591-39de-4c47-8488-1c4d8df770f8)
    (property "Reference" "#PWR013" (id 0) (at 240.03 91.44 0)
      (effects (font (size 1.27 1.27)) hide)
    )
    (property "Value" "+3V3" (id 1) (at 240.03 82.55 0))
    (property "Footprint" "" (id 2) (at 240.03 87.63 0)
      (effects (font (size 1.27 1.27)) hide)
    )
    (property "Datasheet" "" (id 3) (at 240.03 87.63 0)
      (effects (font (size 1.27 1.27)) hide)
    )
    (pin "1" (uuid 279f6bab-d9b7-4035-a39a-093a193c4940))
  )

  (symbol (lib_id "Switch:SW_SPST") (at 81.915 41.91 0) (unit 1)
    (in_bom yes) (on_board yes)
    (uuid 24b0d7cd-c221-4869-a0c4-8429176ff40c)
    (property "Reference" "SW5" (id 0) (at 81.915 36.195 0))
    (property "Value" "SPST-Bleu" (id 1) (at 81.915 38.735 0))
    (property "Footprint" "Button_Switch_SMD:SW_SPST_PTS810" (id 2) (at 81.915 41.91 0)
      (effects (font (size 1.27 1.27)) hide)
    )
    (property "Datasheet" "~" (id 3) (at 81.915 41.91 0)
      (effects (font (size 1.27 1.27)) hide)
    )
    (pin "1" (uuid 236ac7cf-dcbc-4930-a1b9-2176a26b4024))
    (pin "2" (uuid a5fa3b27-7b66-4c1f-ac30-17ef3d06d847))
  )

  (symbol (lib_id "Device:C") (at 82.55 58.42 0) (unit 1)
    (in_bom yes) (on_board yes) (fields_autoplaced)
    (uuid 25b3d79a-31cc-45b3-b0ea-2aab73a88d03)
    (property "Reference" "C7" (id 0) (at 86.36 57.1499 0)
      (effects (font (size 1.27 1.27)) (justify left))
    )
    (property "Value" "15pF" (id 1) (at 86.36 59.6899 0)
      (effects (font (size 1.27 1.27)) (justify left))
    )
    (property "Footprint" "Capacitor_SMD:C_0805_2012Metric" (id 2) (at 83.5152 62.23 0)
      (effects (font (size 1.27 1.27)) hide)
    )
    (property "Datasheet" "~" (id 3) (at 82.55 58.42 0)
      (effects (font (size 1.27 1.27)) hide)
    )
    (pin "1" (uuid 2eede209-53fc-4e9b-a72b-19de03d8aa0b))
    (pin "2" (uuid 7b7061e4-8f44-408c-a683-3f1d3426d5d2))
  )

  (symbol (lib_id "Device:C") (at 97.79 121.92 0) (unit 1)
    (in_bom yes) (on_board yes) (fields_autoplaced)
    (uuid 2d45e743-5cc0-4a35-82ea-36becba0b3b7)
    (property "Reference" "C12" (id 0) (at 101.6 120.6499 0)
      (effects (font (size 1.27 1.27)) (justify left))
    )
    (property "Value" "0,1uF" (id 1) (at 101.6 123.1899 0)
      (effects (font (size 1.27 1.27)) (justify left))
    )
    (property "Footprint" "Capacitor_SMD:C_0805_2012Metric" (id 2) (at 98.7552 125.73 0)
      (effects (font (size 1.27 1.27)) hide)
    )
    (property "Datasheet" "~" (id 3) (at 97.79 121.92 0)
      (effects (font (size 1.27 1.27)) hide)
    )
    (pin "1" (uuid b0eaef0e-83cf-4160-979c-806dec688e73))
    (pin "2" (uuid ef96fb96-a532-428f-b643-1c059ccdf9aa))
  )

  (symbol (lib_id "Device:Crystal_GND24") (at 46.99 73.66 90) (unit 1)
    (in_bom yes) (on_board yes) (fields_autoplaced)
    (uuid 33b518d6-16e6-4d0f-98d7-80ec7ddf2ab2)
    (property "Reference" "Y1" (id 0) (at 59.69 68.961 90))
    (property "Value" "Crystal_GND24" (id 1) (at 59.69 71.501 90))
    (property "Footprint" "Crystal:Crystal_SMD_3225-4Pin_3.2x2.5mm" (id 2) (at 46.99 73.66 0)
      (effects (font (size 1.27 1.27)) hide)
    )
    (property "Datasheet" "~" (id 3) (at 46.99 73.66 0)
      (effects (font (size 1.27 1.27)) hide)
    )
    (pin "1" (uuid df0329ee-d1d6-4724-887f-32a438fedf32))
    (pin "2" (uuid 9dbfd3dd-6c06-4d83-ace1-e1c1e01e4a38))
    (pin "3" (uuid 08ffc208-1bee-46be-a5c4-80627a8148c6))
    (pin "4" (uuid 65b08365-9ad2-41c5-911e-783303206797))
  )

  (symbol (lib_id "Device:C") (at 80.01 109.22 0) (mirror x) (unit 1)
    (in_bom yes) (on_board yes) (fields_autoplaced)
    (uuid 45211f01-36d4-4858-9078-b956c8b5ae91)
    (property "Reference" "C6" (id 0) (at 76.2 107.9499 0)
      (effects (font (size 1.27 1.27)) (justify right))
    )
    (property "Value" "0,1uF" (id 1) (at 76.2 110.4899 0)
      (effects (font (size 1.27 1.27)) (justify right))
    )
    (property "Footprint" "Capacitor_SMD:C_0805_2012Metric" (id 2) (at 80.9752 105.41 0)
      (effects (font (size 1.27 1.27)) hide)
    )
    (property "Datasheet" "~" (id 3) (at 80.01 109.22 0)
      (effects (font (size 1.27 1.27)) hide)
    )
    (pin "1" (uuid 8304e498-feb6-4f23-9a56-31ac11d9f9a6))
    (pin "2" (uuid 0c876837-50ab-4e6d-8248-ad2faa29dc61))
  )

  (symbol (lib_id "Device:Antenna_Shield") (at 110.49 33.02 0) (unit 1)
    (in_bom yes) (on_board yes)
    (uuid 4af16160-19f7-45ee-a9a7-20b23759315d)
    (property "Reference" "AE3" (id 0) (at 113.665 32.385 0)
      (effects (font (size 1.27 1.27)) (justify left))
    )
    (property "Value" "Antenna" (id 1) (at 113.665 34.925 0)
      (effects (font (size 1.27 1.27)) (justify left))
    )
    (property "Footprint" "RF_Antenna:Texas_SWRA117D_2.4GHz_Right" (id 2) (at 110.49 30.48 0)
      (effects (font (size 1.27 1.27)) hide)
    )
    (property "Datasheet" "~" (id 3) (at 110.49 30.48 0)
      (effects (font (size 1.27 1.27)) hide)
    )
    (pin "1" (uuid 6c336a86-29e4-48ac-a38e-e74a220c03a3))
    (pin "2" (uuid adda1bac-cf54-40ec-8a07-01f0a7a8b620))
  )

  (symbol (lib_id "power:+3V3") (at 67.31 91.44 0) (unit 1)
    (in_bom yes) (on_board yes) (fields_autoplaced)
    (uuid 57b757da-3cb4-4fcf-9d7f-5cbd2ff14ef1)
    (property "Reference" "#PWR07" (id 0) (at 67.31 95.25 0)
      (effects (font (size 1.27 1.27)) hide)
    )
    (property "Value" "+3V3" (id 1) (at 67.31 86.36 0))
    (property "Footprint" "" (id 2) (at 67.31 91.44 0)
      (effects (font (size 1.27 1.27)) hide)
    )
    (property "Datasheet" "" (id 3) (at 67.31 91.44 0)
      (effects (font (size 1.27 1.27)) hide)
    )
    (pin "1" (uuid 7436c636-d3fc-4587-a641-683570dd98dc))
  )

  (symbol (lib_id "Device:Crystal") (at 82.55 66.04 90) (unit 1)
    (in_bom yes) (on_board yes) (fields_autoplaced)
    (uuid 5d97d343-a678-4389-bc26-5f1bbdcd8d50)
    (property "Reference" "Y2" (id 0) (at 86.36 64.7699 90)
      (effects (font (size 1.27 1.27)) (justify right))
    )
    (property "Value" "Crystal" (id 1) (at 86.36 67.3099 90)
      (effects (font (size 1.27 1.27)) (justify right))
    )
    (property "Footprint" "Crystal:Crystal_SMD_3215-2Pin_3.2x1.5mm" (id 2) (at 82.55 66.04 0)
      (effects (font (size 1.27 1.27)) hide)
    )
    (property "Datasheet" "~" (id 3) (at 82.55 66.04 0)
      (effects (font (size 1.27 1.27)) hide)
    )
    (pin "1" (uuid 03bd1feb-ca29-47a4-a4fc-98a1a7073844))
    (pin "2" (uuid 4479bea2-af6e-461c-87f5-1eef9d0efbe0))
  )

  (symbol (lib_id "Device:C") (at 97.79 111.76 0) (unit 1)
    (in_bom yes) (on_board yes) (fields_autoplaced)
    (uuid 64362d08-1e6e-4acf-8e53-088d8e0859c7)
    (property "Reference" "C11" (id 0) (at 101.6 110.4899 0)
      (effects (font (size 1.27 1.27)) (justify left))
    )
    (property "Value" "0,1uF" (id 1) (at 101.6 113.0299 0)
      (effects (font (size 1.27 1.27)) (justify left))
    )
    (property "Footprint" "Capacitor_SMD:C_0805_2012Metric" (id 2) (at 98.7552 115.57 0)
      (effects (font (size 1.27 1.27)) hide)
    )
    (property "Datasheet" "~" (id 3) (at 97.79 111.76 0)
      (effects (font (size 1.27 1.27)) hide)
    )
    (pin "1" (uuid c1bef321-2103-4107-a962-14f977063b6c))
    (pin "2" (uuid 931aa5f0-8bab-4405-b096-9d93d2bb3afb))
  )

  (symbol (lib_id "power:VCC") (at 228.6 97.79 0) (unit 1)
    (in_bom yes) (on_board yes) (fields_autoplaced)
    (uuid 674848fe-44e1-4d69-baa8-b7e6d0ba869b)
    (property "Reference" "#PWR072" (id 0) (at 228.6 101.6 0)
      (effects (font (size 1.27 1.27)) hide)
    )
    (property "Value" "VCC" (id 1) (at 228.6 92.075 0))
    (property "Footprint" "" (id 2) (at 228.6 97.79 0)
      (effects (font (size 1.27 1.27)) hide)
    )
    (property "Datasheet" "" (id 3) (at 228.6 97.79 0)
      (effects (font (size 1.27 1.27)) hide)
    )
    (pin "1" (uuid aa692cd2-55c6-4cfd-9a4d-6a15135cab0d))
  )

  (symbol (lib_id "power:GND") (at 171.45 113.03 0) (unit 1)
    (in_bom yes) (on_board yes) (fields_autoplaced)
    (uuid 6aed9747-e865-461e-8aa9-71f720f521be)
    (property "Reference" "#PWR011" (id 0) (at 171.45 119.38 0)
      (effects (font (size 1.27 1.27)) hide)
    )
    (property "Value" "GND" (id 1) (at 171.45 118.11 0))
    (property "Footprint" "" (id 2) (at 171.45 113.03 0)
      (effects (font (size 1.27 1.27)) hide)
    )
    (property "Datasheet" "" (id 3) (at 171.45 113.03 0)
      (effects (font (size 1.27 1.27)) hide)
    )
    (pin "1" (uuid b3267c58-9514-4c51-8319-f6a6ef00033b))
  )

  (symbol (lib_id "Device:Antenna_Shield") (at 123.19 33.02 0) (unit 1)
    (in_bom yes) (on_board yes)
    (uuid 7aaa4fec-aba5-42b8-82ee-e7ac1f166a82)
    (property "Reference" "AE4" (id 0) (at 126.365 32.385 0)
      (effects (font (size 1.27 1.27)) (justify left))
    )
    (property "Value" "Antenna" (id 1) (at 126.365 34.925 0)
      (effects (font (size 1.27 1.27)) (justify left))
    )
    (property "Footprint" "Connector_Coaxial:SMA_Amphenol_132289_EdgeMount" (id 2) (at 123.19 30.48 0)
      (effects (font (size 1.27 1.27)) hide)
    )
    (property "Datasheet" "~" (id 3) (at 123.19 30.48 0)
      (effects (font (size 1.27 1.27)) hide)
    )
    (pin "1" (uuid e53b8d7d-cbfe-4615-b74f-7aa3f528afaa))
    (pin "2" (uuid 37e3ff1d-1e7d-48c8-867c-41355e9831ce))
  )

  (symbol (lib_id "power:GND") (at 240.03 97.79 0) (unit 1)
    (in_bom yes) (on_board yes) (fields_autoplaced)
    (uuid 7f28cbc4-4528-47cb-a445-3e58297de022)
    (property "Reference" "#PWR014" (id 0) (at 240.03 104.14 0)
      (effects (font (size 1.27 1.27)) hide)
    )
    (property "Value" "GND" (id 1) (at 240.03 102.87 0))
    (property "Footprint" "" (id 2) (at 240.03 97.79 0)
      (effects (font (size 1.27 1.27)) hide)
    )
    (property "Datasheet" "" (id 3) (at 240.03 97.79 0)
      (effects (font (size 1.27 1.27)) hide)
    )
    (pin "1" (uuid 10a94504-7c0d-4e39-85f7-8a5433faf8af))
  )

  (symbol (lib_id "power:GND") (at 125.73 38.1 0) (unit 1)
    (in_bom yes) (on_board yes)
    (uuid 801733e5-5ede-4721-8dc6-cd617d1844bd)
    (property "Reference" "#PWR0103" (id 0) (at 125.73 44.45 0)
      (effects (font (size 1.27 1.27)) hide)
    )
    (property "Value" "GND" (id 1) (at 129.54 40.005 0))
    (property "Footprint" "" (id 2) (at 125.73 38.1 0)
      (effects (font (size 1.27 1.27)) hide)
    )
    (property "Datasheet" "" (id 3) (at 125.73 38.1 0)
      (effects (font (size 1.27 1.27)) hide)
    )
    (pin "1" (uuid a2ab81b1-0ee7-47d2-ba77-77fabefb7b93))
  )

  (symbol (lib_id "power:GND") (at 219.71 110.49 0) (unit 1)
    (in_bom yes) (on_board yes) (fields_autoplaced)
    (uuid 835fedc9-6f66-4b2e-9006-d78a0a949431)
    (property "Reference" "#PWR071" (id 0) (at 219.71 116.84 0)
      (effects (font (size 1.27 1.27)) hide)
    )
    (property "Value" "GND" (id 1) (at 219.71 115.57 0))
    (property "Footprint" "" (id 2) (at 219.71 110.49 0)
      (effects (font (size 1.27 1.27)) hide)
    )
    (property "Datasheet" "" (id 3) (at 219.71 110.49 0)
      (effects (font (size 1.27 1.27)) hide)
    )
    (pin "1" (uuid a0a9789d-2bfd-4072-bee0-08c53c405d65))
  )

  (symbol (lib_id "Device:C") (at 54.61 104.14 0) (mirror x) (unit 1)
    (in_bom yes) (on_board yes) (fields_autoplaced)
    (uuid 87c732be-a743-4470-87dd-d72e50f367c5)
    (property "Reference" "C3" (id 0) (at 50.8 102.8699 0)
      (effects (font (size 1.27 1.27)) (justify right))
    )
    (property "Value" "10uF" (id 1) (at 50.8 105.4099 0)
      (effects (font (size 1.27 1.27)) (justify right))
    )
    (property "Footprint" "Capacitor_SMD:C_0805_2012Metric" (id 2) (at 55.5752 100.33 0)
      (effects (font (size 1.27 1.27)) hide)
    )
    (property "Datasheet" "~" (id 3) (at 54.61 104.14 0)
      (effects (font (size 1.27 1.27)) hide)
    )
    (pin "1" (uuid b401b6f1-9a9c-4c7e-95a3-42c79740d269))
    (pin "2" (uuid 13a5c090-ed60-41e9-8ae4-92bfe5e1a8ff))
  )

  (symbol (lib_id "Device:C") (at 97.79 99.06 0) (unit 1)
    (in_bom yes) (on_board yes) (fields_autoplaced)
    (uuid 8dfd8f9e-8f7a-49e3-b75e-7d64e25bc6f5)
    (property "Reference" "C10" (id 0) (at 101.6 97.7899 0)
      (effects (font (size 1.27 1.27)) (justify left))
    )
    (property "Value" "0,01uF" (id 1) (at 101.6 100.3299 0)
      (effects (font (size 1.27 1.27)) (justify left))
    )
    (property "Footprint" "Capacitor_SMD:C_0805_2012Metric" (id 2) (at 98.7552 102.87 0)
      (effects (font (size 1.27 1.27)) hide)
    )
    (property "Datasheet" "~" (id 3) (at 97.79 99.06 0)
      (effects (font (size 1.27 1.27)) hide)
    )
    (pin "1" (uuid 663a84d7-2337-439b-a846-8f8d54ba7e7d))
    (pin "2" (uuid b218f0c7-69fb-459e-8440-f019ee4bd064))
  )

  (symbol (lib_id "Espressif:ESP32-C3") (at 140.97 85.09 0) (unit 1)
    (in_bom yes) (on_board yes) (fields_autoplaced)
    (uuid a15c7df4-92e0-49df-92c8-9227cd6c33a8)
    (property "Reference" "U1" (id 0) (at 140.97 49.53 0))
    (property "Value" "ESP32-C3" (id 1) (at 140.97 52.07 0))
    (property "Footprint" "Package_DFN_QFN:QFN-32-1EP_5x5mm_P0.5mm_EP3.45x3.45mm_ThermalVias" (id 2) (at 140.97 115.57 0)
      (effects (font (size 1.27 1.27)) hide)
    )
    (property "Datasheet" "https://www.espressif.com/sites/default/files/documentation/esp32-c3_datasheet_en.pdf" (id 3) (at 140.97 118.11 0)
      (effects (font (size 1.27 1.27)) hide)
    )
    (pin "1" (uuid 20adf0f7-6508-462a-abaa-7d4ea4f822f6))
    (pin "10" (uuid 3a8c1263-9ece-4f6b-a0c1-cf598c1edcb9))
    (pin "11" (uuid 1abaf408-80d1-4845-9561-11d8aad5b985))
    (pin "12" (uuid f6d350bb-699f-4fc6-987d-701f1426cc1f))
    (pin "13" (uuid 8a8fbb99-4fdf-487e-82d0-53ae9e767865))
    (pin "14" (uuid 84e828af-6dfc-4344-adf7-a4f1fa9b6e85))
    (pin "15" (uuid 7ab5a87a-6472-466a-ad3e-8ed19243e362))
    (pin "16" (uuid bc37a3e8-69b6-48f9-947a-0f588c67f950))
    (pin "17" (uuid 27507973-7a21-4f13-9f72-04455fb9dcc4))
    (pin "18" (uuid 30bacf83-4f6c-4b28-ad00-a6ecab19a180))
    (pin "19" (uuid fcae3f78-1a9b-4544-96e2-005e3e1ca1c8))
    (pin "2" (uuid 5ae0022d-4f23-479a-ad9c-9b9674dede5c))
    (pin "20" (uuid c2701467-6053-48c0-bc68-2b43e1c78fc6))
    (pin "21" (uuid 551505ca-7915-4c95-9a4a-1619a1ba951d))
    (pin "22" (uuid 66a02cb4-bb20-46a1-bc0b-f3208407afe5))
    (pin "23" (uuid 72e421bc-d1ae-4336-95de-61aa3b5ddebf))
    (pin "24" (uuid 323e4970-5732-4b3c-9af2-9a135f8ecef0))
    (pin "25" (uuid 44e073dd-841b-4e70-bef9-1df79cbac68f))
    (pin "26" (uuid 973cd8d3-7627-48bd-aeb4-6002690a81d0))
    (pin "27" (uuid 5025ecd1-4522-46af-a17b-e12b50f33d7b))
    (pin "28" (uuid ecbb0617-95f9-4d4f-a4a7-eed11f5f930b))
    (pin "29" (uuid 2f7e0c4f-9620-4a2f-ad25-2d91ae932a11))
    (pin "30" (uuid cce167a5-dd2c-42c1-9bef-49d699574b4d))
    (pin "31" (uuid dc0ca4c5-890b-45fb-96fc-225e408de57e))
    (pin "33" (uuid decea70d-fd84-455f-861f-583b46908835))
    (pin "4" (uuid 39cce3ae-71ed-4fe7-a7d5-b4cbf53510f4))
    (pin "5" (uuid 8301dfb0-8ace-41a5-989e-8c234cdf6745))
    (pin "6" (uuid 76f5218e-7ccd-4bef-afdf-160cd716591b))
    (pin "7" (uuid b8a9cad6-3467-4289-87ce-eb4bc1de6221))
    (pin "8" (uuid 07fced30-28a1-4f7c-ba4f-dd45c2f5aeb4))
    (pin "9" (uuid a5c9010a-7423-4b49-a265-53791df3c8f6))
    (pin "3" (uuid 7088b32e-5543-4399-80b6-0a23f05dcae1))
    (pin "32" (uuid 1b6f53eb-70e5-470b-a0cf-f9e612d178ba))
  )

  (symbol (lib_id "Device:C") (at 87.63 99.06 0) (unit 1)
    (in_bom yes) (on_board yes) (fields_autoplaced)
    (uuid a2a2240b-0dc1-4d53-9872-c4a0f91325f7)
    (property "Reference" "C8" (id 0) (at 91.44 97.7899 0)
      (effects (font (size 1.27 1.27)) (justify left))
    )
    (property "Value" "1uF" (id 1) (at 91.44 100.3299 0)
      (effects (font (size 1.27 1.27)) (justify left))
    )
    (property "Footprint" "Capacitor_SMD:C_0805_2012Metric" (id 2) (at 88.5952 102.87 0)
      (effects (font (size 1.27 1.27)) hide)
    )
    (property "Datasheet" "~" (id 3) (at 87.63 99.06 0)
      (effects (font (size 1.27 1.27)) hide)
    )
    (pin "1" (uuid 5b35d642-1c68-434b-8381-82ef14343e9c))
    (pin "2" (uuid 41648887-ea04-4658-87ee-a5cf9c60e63f))
  )

  (symbol (lib_id "power:GND") (at 92.71 130.81 0) (unit 1)
    (in_bom yes) (on_board yes) (fields_autoplaced)
    (uuid b56cf89e-0879-460b-b046-ffd0b0920683)
    (property "Reference" "#PWR09" (id 0) (at 92.71 137.16 0)
      (effects (font (size 1.27 1.27)) hide)
    )
    (property "Value" "GND" (id 1) (at 92.71 135.89 0))
    (property "Footprint" "" (id 2) (at 92.71 130.81 0)
      (effects (font (size 1.27 1.27)) hide)
    )
    (property "Datasheet" "" (id 3) (at 92.71 130.81 0)
      (effects (font (size 1.27 1.27)) hide)
    )
    (pin "1" (uuid 99ebbd68-2a28-475b-8693-c842d8d7c206))
  )

  (symbol (lib_id "Jumper:SolderJumper_3_Open") (at 116.84 40.64 0) (unit 1)
    (in_bom yes) (on_board yes)
    (uuid b8a18752-bc6a-4596-8a31-7c53ab210422)
    (property "Reference" "JP1" (id 0) (at 116.84 38.1 0))
    (property "Value" "SJumper" (id 1) (at 123.19 43.815 0))
    (property "Footprint" "Jumper:SolderJumper-3_P1.3mm_Open_RoundedPad1.0x1.5mm" (id 2) (at 116.84 40.64 0)
      (effects (font (size 1.27 1.27)) hide)
    )
    (property "Datasheet" "~" (id 3) (at 116.84 40.64 0)
      (effects (font (size 1.27 1.27)) hide)
    )
    (pin "1" (uuid cb82939c-a329-456f-8fa7-774d938d645d))
    (pin "2" (uuid f9c8802e-4a99-4277-837b-a3c4eead678c))
    (pin "3" (uuid 7283efa0-cfea-4ded-b80c-5a0263cc53f2))
  )

  (symbol (lib_id "power:GND") (at 76.835 52.07 0) (unit 1)
    (in_bom yes) (on_board yes) (fields_autoplaced)
    (uuid bba610af-068b-43f2-8d23-3ab9866d3df5)
    (property "Reference" "#PWR08" (id 0) (at 76.835 58.42 0)
      (effects (font (size 1.27 1.27)) hide)
    )
    (property "Value" "GND" (id 1) (at 76.835 57.15 0))
    (property "Footprint" "" (id 2) (at 76.835 52.07 0)
      (effects (font (size 1.27 1.27)) hide)
    )
    (property "Datasheet" "" (id 3) (at 76.835 52.07 0)
      (effects (font (size 1.27 1.27)) hide)
    )
    (pin "1" (uuid e5a7f839-4bfd-41cf-95e7-f6a9173b1901))
  )

  (symbol (lib_id "74xGxx:74LVC1G17") (at 219.71 102.87 0) (unit 1)
    (in_bom yes) (on_board yes)
    (uuid c36ca0cb-76a9-491e-b0ab-fd3df622ad4c)
    (property "Reference" "U5" (id 0) (at 214.884 95.25 0))
    (property "Value" "74LVC1G17" (id 1) (at 219.075 97.79 0))
    (property "Footprint" "Package_TO_SOT_SMD:SOT-23-5" (id 2) (at 219.71 102.87 0)
      (effects (font (size 1.27 1.27)) hide)
    )
    (property "Datasheet" "https://assets.nexperia.com/documents/data-sheet/74LVC1G17.pdf" (id 3) (at 219.71 102.87 0)
      (effects (font (size 1.27 1.27)) hide)
    )
    (pin "2" (uuid 19127f95-b3e8-4eb0-b9f9-76825b269b1a))
    (pin "3" (uuid 3854803b-9170-4af2-b2e6-621dff09765c))
    (pin "4" (uuid 1e8de0dc-0564-4727-9748-8176ffc30f61))
    (pin "5" (uuid 1e0814f9-6be3-43ae-a5a7-96e3c77ce25e))
  )

  (symbol (lib_id "Device:C") (at 95.25 45.72 0) (mirror x) (unit 1)
    (in_bom yes) (on_board yes) (fields_autoplaced)
    (uuid c40555a2-76f6-47f6-8565-ddb5b88a8a7f)
    (property "Reference" "C9" (id 0) (at 91.44 44.4499 0)
      (effects (font (size 1.27 1.27)) (justify right))
    )
    (property "Value" "1uF" (id 1) (at 91.44 46.9899 0)
      (effects (font (size 1.27 1.27)) (justify right))
    )
    (property "Footprint" "Capacitor_SMD:C_0805_2012Metric" (id 2) (at 96.2152 41.91 0)
      (effects (font (size 1.27 1.27)) hide)
    )
    (property "Datasheet" "~" (id 3) (at 95.25 45.72 0)
      (effects (font (size 1.27 1.27)) hide)
    )
    (pin "1" (uuid 2d345aa1-b8a7-433b-98bf-3fb90d3260bf))
    (pin "2" (uuid cb7c1e3e-a32d-43a8-bf93-cbb15668bf6c))
  )

  (symbol (lib_id "Device:C") (at 46.99 63.5 0) (unit 1)
    (in_bom yes) (on_board yes) (fields_autoplaced)
    (uuid c7b93edf-06f0-44b2-a4d9-32839e2e3574)
    (property "Reference" "C1" (id 0) (at 50.8 62.2299 0)
      (effects (font (size 1.27 1.27)) (justify left))
    )
    (property "Value" "18pF" (id 1) (at 50.8 64.7699 0)
      (effects (font (size 1.27 1.27)) (justify left))
    )
    (property "Footprint" "Capacitor_SMD:C_0805_2012Metric" (id 2) (at 47.9552 67.31 0)
      (effects (font (size 1.27 1.27)) hide)
    )
    (property "Datasheet" "~" (id 3) (at 46.99 63.5 0)
      (effects (font (size 1.27 1.27)) hide)
    )
    (pin "1" (uuid 1cfeb01b-cfd6-43eb-971b-d57633f491d6))
    (pin "2" (uuid cb7f452d-d9ab-4fa2-908f-9fe1e5ead8d5))
  )

  (symbol (lib_id "Connector:TestPoint") (at 259.08 136.525 0) (unit 1)
    (in_bom yes) (on_board yes) (fields_autoplaced)
    (uuid c9cd82f8-9a74-4b50-81c0-8f4e63b3b569)
    (property "Reference" "TP4" (id 0) (at 261.62 131.9529 0)
      (effects (font (size 1.27 1.27)) (justify left))
    )
    (property "Value" "TestPoint" (id 1) (at 261.62 134.4929 0)
      (effects (font (size 1.27 1.27)) (justify left))
    )
    (property "Footprint" "TestPoint:TestPoint_Pad_D2.0mm" (id 2) (at 264.16 136.525 0)
      (effects (font (size 1.27 1.27)) hide)
    )
    (property "Datasheet" "~" (id 3) (at 264.16 136.525 0)
      (effects (font (size 1.27 1.27)) hide)
    )
    (pin "1" (uuid ab16c54d-a51a-4480-b894-abb723037f76))
  )

  (symbol (lib_id "power:GND") (at 39.37 115.57 0) (unit 1)
    (in_bom yes) (on_board yes) (fields_autoplaced)
    (uuid ccac547c-f5f8-47c5-966f-0540b506e13c)
    (property "Reference" "#PWR05" (id 0) (at 39.37 121.92 0)
      (effects (font (size 1.27 1.27)) hide)
    )
    (property "Value" "GND" (id 1) (at 39.37 120.65 0))
    (property "Footprint" "" (id 2) (at 39.37 115.57 0)
      (effects (font (size 1.27 1.27)) hide)
    )
    (property "Datasheet" "" (id 3) (at 39.37 115.57 0)
      (effects (font (size 1.27 1.27)) hide)
    )
    (pin "1" (uuid e9f4f374-f20a-4cb4-9b97-54ba3419aaf2))
  )

  (symbol (lib_id "Connector:TestPoint") (at 198.755 97.79 0) (unit 1)
    (in_bom yes) (on_board yes)
    (uuid cce26288-7864-4941-938e-7207c53a1b16)
    (property "Reference" "TP2" (id 0) (at 200.66 93.2179 0)
      (effects (font (size 1.27 1.27)) (justify left))
    )
    (property "Value" "TestPoint" (id 1) (at 200.66 95.7579 0)
      (effects (font (size 1.27 1.27)) (justify left))
    )
    (property "Footprint" "TestPoint:TestPoint_Pad_D2.0mm" (id 2) (at 203.835 97.79 0)
      (effects (font (size 1.27 1.27)) hide)
    )
    (property "Datasheet" "~" (id 3) (at 203.835 97.79 0)
      (effects (font (size 1.27 1.27)) hide)
    )
    (pin "1" (uuid dafb75f2-75d6-4766-8e5d-c480bc4bcd1e))
  )

  (symbol (lib_id "power:+3V3") (at 102.87 41.91 0) (unit 1)
    (in_bom yes) (on_board yes)
    (uuid cd29126e-aba9-4a1a-98ab-9757b39a85b7)
    (property "Reference" "#PWR010" (id 0) (at 102.87 45.72 0)
      (effects (font (size 1.27 1.27)) hide)
    )
    (property "Value" "+3V3" (id 1) (at 102.87 37.465 0))
    (property "Footprint" "" (id 2) (at 102.87 41.91 0)
      (effects (font (size 1.27 1.27)) hide)
    )
    (property "Datasheet" "" (id 3) (at 102.87 41.91 0)
      (effects (font (size 1.27 1.27)) hide)
    )
    (pin "1" (uuid b7bd2321-82dc-413a-bc00-9da8472e9fa6))
  )

  (symbol (lib_id "power:GND") (at 54.61 73.66 0) (unit 1)
    (in_bom yes) (on_board yes)
    (uuid d059cc37-3dd7-4d0e-85fc-dc7a4b2e6729)
    (property "Reference" "#PWR06" (id 0) (at 54.61 80.01 0)
      (effects (font (size 1.27 1.27)) hide)
    )
    (property "Value" "GND" (id 1) (at 54.61 78.105 0))
    (property "Footprint" "" (id 2) (at 54.61 73.66 0)
      (effects (font (size 1.27 1.27)) hide)
    )
    (property "Datasheet" "" (id 3) (at 54.61 73.66 0)
      (effects (font (size 1.27 1.27)) hide)
    )
    (pin "1" (uuid ef953367-1971-4a2f-a067-0abcd163f7dd))
  )

  (symbol (lib_id "Connector:TestPoint") (at 259.08 131.445 0) (unit 1)
    (in_bom yes) (on_board yes) (fields_autoplaced)
    (uuid d568b090-6df1-4518-9247-5b25ab8b4cce)
    (property "Reference" "TP3" (id 0) (at 261.62 126.8729 0)
      (effects (font (size 1.27 1.27)) (justify left))
    )
    (property "Value" "TestPoint" (id 1) (at 261.62 129.4129 0)
      (effects (font (size 1.27 1.27)) (justify left))
    )
    (property "Footprint" "TestPoint:TestPoint_Pad_D2.0mm" (id 2) (at 264.16 131.445 0)
      (effects (font (size 1.27 1.27)) hide)
    )
    (property "Datasheet" "~" (id 3) (at 264.16 131.445 0)
      (effects (font (size 1.27 1.27)) hide)
    )
    (pin "1" (uuid a18a12da-4ed7-4f24-9de9-ba0e9da7a1c1))
  )

  (symbol (lib_id "Device:C") (at 240.03 93.98 0) (unit 1)
    (in_bom yes) (on_board yes) (fields_autoplaced)
    (uuid e2c8e7ee-3cf7-4e4f-bd92-5a70c22482e2)
    (property "Reference" "C13" (id 0) (at 243.84 92.7099 0)
      (effects (font (size 1.27 1.27)) (justify left))
    )
    (property "Value" "1uF" (id 1) (at 243.84 95.2499 0)
      (effects (font (size 1.27 1.27)) (justify left))
    )
    (property "Footprint" "Capacitor_SMD:C_0805_2012Metric" (id 2) (at 240.9952 97.79 0)
      (effects (font (size 1.27 1.27)) hide)
    )
    (property "Datasheet" "~" (id 3) (at 240.03 93.98 0)
      (effects (font (size 1.27 1.27)) hide)
    )
    (pin "1" (uuid ac8977cb-4bab-4a44-b73b-d23d1843e734))
    (pin "2" (uuid dd7755b2-a5fa-4d09-b7f9-6574e6a408e7))
  )

  (symbol (lib_id "Device:L") (at 80.01 99.06 0) (unit 1)
    (in_bom yes) (on_board yes) (fields_autoplaced)
    (uuid e9796548-f78f-42f5-a673-f49afb54781f)
    (property "Reference" "L1" (id 0) (at 81.28 97.7899 0)
      (effects (font (size 1.27 1.27)) (justify left))
    )
    (property "Value" "2nH" (id 1) (at 81.28 100.3299 0)
      (effects (font (size 1.27 1.27)) (justify left))
    )
    (property "Footprint" "Inductor_SMD:L_0603_1608Metric" (id 2) (at 80.01 99.06 0)
      (effects (font (size 1.27 1.27)) hide)
    )
    (property "Datasheet" "~" (id 3) (at 80.01 99.06 0)
      (effects (font (size 1.27 1.27)) hide)
    )
    (pin "1" (uuid 86c2bef6-9f53-4a07-9007-34021f261a0f))
    (pin "2" (uuid cb33f951-713f-4296-b9c0-997d3cc7d693))
  )

  (symbol (lib_id "Device:R") (at 110.49 44.45 0) (unit 1)
    (in_bom yes) (on_board yes)
    (uuid ef3f9a6c-5c26-44de-b327-16d2f910738a)
    (property "Reference" "R29" (id 0) (at 110.49 46.355 90)
      (effects (font (size 0.7 0.7)) (justify left))
    )
    (property "Value" "0" (id 1) (at 110.49 43.18 90)
      (effects (font (size 0.7 0.7)) (justify left))
    )
    (property "Footprint" "Resistor_SMD:R_0603_1608Metric" (id 2) (at 108.712 44.45 90)
      (effects (font (size 1.27 1.27)) hide)
    )
    (property "Datasheet" "~" (id 3) (at 110.49 44.45 0)
      (effects (font (size 1.27 1.27)) hide)
    )
    (pin "1" (uuid 97617f98-940d-4d8c-a820-bc5b0d12af39))
    (pin "2" (uuid 29b8ad81-6d5c-4bfa-9aaf-93ce77d0852f))
  )

  (symbol (lib_id "Connector:TestPoint") (at 259.08 141.605 0) (unit 1)
    (in_bom yes) (on_board yes) (fields_autoplaced)
    (uuid fcffbb16-f0d4-4ba1-8d08-9171985969b8)
    (property "Reference" "TP5" (id 0) (at 261.62 137.0329 0)
      (effects (font (size 1.27 1.27)) (justify left))
    )
    (property "Value" "TestPoint" (id 1) (at 261.62 139.5729 0)
      (effects (font (size 1.27 1.27)) (justify left))
    )
    (property "Footprint" "TestPoint:TestPoint_Pad_D2.0mm" (id 2) (at 264.16 141.605 0)
      (effects (font (size 1.27 1.27)) hide)
    )
    (property "Datasheet" "~" (id 3) (at 264.16 141.605 0)
      (effects (font (size 1.27 1.27)) hide)
    )
    (pin "1" (uuid 0633c2e4-3044-4a70-91ec-693e55923a3a))
  )

  (symbol (lib_id "Device:C") (at 46.99 83.82 0) (unit 1)
    (in_bom yes) (on_board yes) (fields_autoplaced)
    (uuid fdb534c9-ccfa-4844-b295-596a5c2a2ebe)
    (property "Reference" "C2" (id 0) (at 50.8 82.5499 0)
      (effects (font (size 1.27 1.27)) (justify left))
    )
    (property "Value" "18pF" (id 1) (at 50.8 85.0899 0)
      (effects (font (size 1.27 1.27)) (justify left))
    )
    (property "Footprint" "Capacitor_SMD:C_0805_2012Metric" (id 2) (at 47.9552 87.63 0)
      (effects (font (size 1.27 1.27)) hide)
    )
    (property "Datasheet" "~" (id 3) (at 46.99 83.82 0)
      (effects (font (size 1.27 1.27)) hide)
    )
    (pin "1" (uuid 0b1c8d65-f7d4-4cbf-84c8-038f7219548b))
    (pin "2" (uuid d8d7b380-57ac-4893-ab20-8259767f54d2))
  )
)
